# Blender v2.79 (sub 0) OBJ File: ''
# www.blender.org
o Plane
v -144.643890 0.000000 -144.643890
v -126.563400 0.000000 -126.563400
v -126.563400 0.000000 -144.643890
v -144.643890 0.000000 -126.563400
v 0.000000 0.000000 0.000000
v 0.000000 -0.000000 18.080486
v 18.080486 -0.000000 18.080486
v -18.080486 0.000000 0.000000
v -144.643890 0.000000 0.000000
v -144.643890 -0.000000 18.080486
v -126.563400 -0.000000 18.080486
v 0.000000 0.000000 -144.643890
v 18.080486 0.000000 -126.563400
v 18.080486 0.000000 -144.643890
v 0.000000 0.000000 -126.563400
v 18.080486 0.000000 0.000000
v 72.321945 0.000000 0.000000
v 90.402435 -0.000000 18.080486
v 90.402435 0.000000 0.000000
v 72.321945 -0.000000 18.080486
v 72.321945 -0.000000 72.321945
v 90.402435 -0.000000 90.402435
v 90.402435 -0.000000 72.321945
v 72.321945 0.000000 -72.321945
v 72.321945 0.000000 -54.241459
v 90.402435 0.000000 -54.241459
v 54.241459 0.000000 -72.321945
v 0.000000 0.000000 -72.321945
v 0.000000 0.000000 -54.241459
v 18.080486 0.000000 -54.241459
v 72.321945 0.000000 -144.643890
v 90.402435 0.000000 -126.563400
v 90.402435 0.000000 -144.643890
v 72.321945 0.000000 -126.563400
v 90.402435 0.000000 -72.321945
v -72.321945 -0.000000 72.321945
v -72.321945 -0.000000 90.402435
v -54.241459 -0.000000 90.402435
v -90.402435 -0.000000 72.321945
v -144.643890 -0.000000 72.321945
v -144.643890 -0.000000 90.402435
v -126.563400 -0.000000 90.402435
v 0.000000 -0.000000 72.321945
v -18.080486 -0.000000 72.321945
v 0.000000 -0.000000 90.402435
v -18.080486 -0.000000 54.241459
v -72.321945 0.000000 0.000000
v -90.402435 0.000000 0.000000
v -72.321945 -0.000000 18.080486
v 72.321945 -0.000000 90.402435
v 54.241459 -0.000000 72.321945
v 18.080486 -0.000000 90.402435
v -72.321945 0.000000 -72.321945
v -72.321945 0.000000 -54.241459
v -54.241459 0.000000 -54.241459
v -90.402435 0.000000 -72.321945
v -144.643890 0.000000 -72.321945
v -144.643890 0.000000 -54.241459
v -126.563400 0.000000 -54.241459
v -72.321945 0.000000 -144.643890
v -54.241459 0.000000 -126.563400
v -54.241459 0.000000 -144.643890
v -72.321945 0.000000 -126.563400
v -54.241459 0.000000 -72.321945
v -36.160973 0.000000 -72.321945
v -18.080486 0.000000 -54.241459
v -18.080486 0.000000 -72.321945
v -36.160973 0.000000 -54.241459
v -36.160973 0.000000 -36.160973
v -18.080486 0.000000 -18.080486
v -18.080486 0.000000 -36.160973
v -36.160973 0.000000 -108.482918
v -36.160973 0.000000 -90.402435
v -18.080486 0.000000 -90.402435
v -54.241459 0.000000 -108.482918
v -72.321945 0.000000 -108.482918
v -72.321945 0.000000 -90.402435
v -54.241459 0.000000 -90.402435
v -36.160973 0.000000 -144.643890
v -18.080486 0.000000 -126.563400
v -18.080486 0.000000 -144.643890
v -36.160973 0.000000 -126.563400
v -18.080486 0.000000 -108.482918
v -108.482918 0.000000 -36.160973
v -108.482918 0.000000 -18.080486
v -90.402435 0.000000 -18.080486
v -126.563400 0.000000 -36.160973
v -144.643890 0.000000 -36.160973
v -144.643890 0.000000 -18.080486
v -126.563400 0.000000 -18.080486
v -72.321945 0.000000 -36.160973
v -90.402435 0.000000 -36.160973
v -72.321945 0.000000 -18.080486
v -90.402435 0.000000 -54.241459
v -108.482918 0.000000 -72.321945
v -126.563400 0.000000 -72.321945
v -108.482918 0.000000 -54.241459
v -36.160973 0.000000 -18.080486
v -54.241459 0.000000 -36.160973
v -54.241459 0.000000 -18.080486
v 36.160973 -0.000000 108.482918
v 36.160973 -0.000000 126.563400
v 54.241459 -0.000000 126.563400
v 18.080486 -0.000000 108.482918
v 0.000000 -0.000000 108.482918
v 0.000000 -0.000000 126.563400
v 18.080486 -0.000000 126.563400
v 72.321945 -0.000000 108.482918
v 54.241459 -0.000000 108.482918
v 72.321945 -0.000000 126.563400
v 54.241459 -0.000000 90.402435
v 36.160973 -0.000000 72.321945
v 18.080486 -0.000000 72.321945
v 36.160973 -0.000000 90.402435
v 108.482918 -0.000000 108.482918
v 108.482918 -0.000000 126.563400
v 126.563400 -0.000000 126.563400
v 90.402435 -0.000000 108.482918
v 90.402435 -0.000000 126.563400
v -72.321945 -0.000000 36.160973
v -90.402435 -0.000000 36.160973
v -72.321945 -0.000000 54.241459
v -90.402435 -0.000000 18.080486
v -108.482918 0.000000 0.000000
v -126.563400 0.000000 0.000000
v -108.482918 -0.000000 18.080486
v -36.160973 -0.000000 72.321945
v -54.241459 -0.000000 54.241459
v -54.241459 -0.000000 72.321945
v -36.160973 -0.000000 54.241459
v -36.160973 -0.000000 36.160973
v -54.241459 -0.000000 18.080486
v -54.241459 -0.000000 36.160973
v -18.080486 -0.000000 108.482918
v -18.080486 -0.000000 90.402435
v -36.160973 -0.000000 90.402435
v -108.482918 -0.000000 108.482918
v -108.482918 -0.000000 126.563400
v -90.402435 -0.000000 126.563400
v -126.563400 -0.000000 108.482918
v -144.643890 -0.000000 108.482918
v -144.643890 -0.000000 126.563400
v -126.563400 -0.000000 126.563400
v -72.321945 -0.000000 108.482918
v -90.402435 -0.000000 108.482918
v -72.321945 -0.000000 126.563400
v -90.402435 -0.000000 90.402435
v -108.482918 -0.000000 72.321945
v -126.563400 -0.000000 72.321945
v -108.482918 -0.000000 90.402435
v -36.160973 -0.000000 108.482918
v -36.160973 -0.000000 126.563400
v -18.080486 -0.000000 126.563400
v -54.241459 -0.000000 108.482918
v -54.241459 -0.000000 126.563400
v 108.482918 0.000000 -72.321945
v 126.563400 0.000000 -54.241459
v 126.563400 0.000000 -72.321945
v 108.482918 0.000000 -54.241459
v 108.482918 0.000000 -36.160973
v 126.563400 0.000000 -18.080486
v 126.563400 0.000000 -36.160973
v 108.482918 0.000000 -108.482918
v 108.482918 0.000000 -90.402435
v 126.563400 0.000000 -90.402435
v 90.402435 0.000000 -108.482918
v 72.321945 0.000000 -108.482918
v 72.321945 0.000000 -90.402435
v 90.402435 0.000000 -90.402435
v 108.482918 0.000000 -144.643890
v 126.563400 0.000000 -126.563400
v 126.563400 0.000000 -144.643890
v 108.482918 0.000000 -126.563400
v 126.563400 0.000000 -108.482918
v 36.160973 0.000000 -36.160973
v 36.160973 0.000000 -18.080486
v 54.241459 0.000000 -18.080486
v 18.080486 0.000000 -36.160973
v 0.000000 0.000000 -36.160973
v 0.000000 0.000000 -18.080486
v 18.080486 0.000000 -18.080486
v 72.321945 0.000000 -36.160973
v 54.241459 0.000000 -36.160973
v 72.321945 0.000000 -18.080486
v 54.241459 0.000000 -54.241459
v 36.160973 0.000000 -72.321945
v 18.080486 0.000000 -72.321945
v 36.160973 0.000000 -54.241459
v 108.482918 0.000000 -18.080486
v 90.402435 0.000000 -36.160973
v 90.402435 0.000000 -18.080486
v 108.482918 -0.000000 72.321945
v 126.563400 -0.000000 90.402435
v 126.563400 -0.000000 72.321945
v 108.482918 -0.000000 90.402435
v 126.563400 -0.000000 108.482918
v 108.482918 -0.000000 36.160973
v 108.482918 -0.000000 54.241459
v 126.563400 -0.000000 54.241459
v 90.402435 -0.000000 36.160973
v 72.321945 -0.000000 36.160973
v 72.321945 -0.000000 54.241459
v 90.402435 -0.000000 54.241459
v 108.482918 0.000000 0.000000
v 126.563400 -0.000000 18.080486
v 126.563400 0.000000 0.000000
v 108.482918 -0.000000 18.080486
v 126.563400 -0.000000 36.160973
v 36.160973 0.000000 0.000000
v 54.241459 -0.000000 18.080486
v 54.241459 0.000000 0.000000
v 36.160973 -0.000000 18.080486
v 36.160973 -0.000000 36.160973
v 54.241459 -0.000000 54.241459
v 54.241459 -0.000000 36.160973
v 36.160973 0.000000 -108.482918
v 36.160973 0.000000 -90.402435
v 54.241459 0.000000 -90.402435
v 18.080486 0.000000 -108.482918
v 0.000000 0.000000 -108.482918
v 0.000000 0.000000 -90.402435
v 18.080486 0.000000 -90.402435
v 36.160973 0.000000 -144.643890
v 54.241459 0.000000 -126.563400
v 54.241459 0.000000 -144.643890
v 36.160973 0.000000 -126.563400
v 54.241459 0.000000 -108.482918
v -108.482918 -0.000000 36.160973
v -108.482918 -0.000000 54.241459
v -90.402435 -0.000000 54.241459
v -126.563400 -0.000000 36.160973
v -144.643890 -0.000000 36.160973
v -144.643890 -0.000000 54.241459
v -126.563400 -0.000000 54.241459
v 0.000000 -0.000000 36.160973
v -18.080486 -0.000000 36.160973
v 0.000000 -0.000000 54.241459
v -18.080486 -0.000000 18.080486
v -36.160973 0.000000 0.000000
v -54.241459 0.000000 0.000000
v -36.160973 -0.000000 18.080486
v 36.160973 -0.000000 54.241459
v 18.080486 -0.000000 36.160973
v 18.080486 -0.000000 54.241459
v -108.482918 0.000000 -108.482918
v -108.482918 0.000000 -90.402435
v -90.402435 0.000000 -90.402435
v -126.563400 0.000000 -108.482918
v -144.643890 0.000000 -108.482918
v -144.643890 0.000000 -90.402435
v -126.563400 0.000000 -90.402435
v -108.482918 0.000000 -144.643890
v -90.402435 0.000000 -126.563400
v -90.402435 0.000000 -144.643890
v -108.482918 0.000000 -126.563400
v -90.402435 0.000000 -108.482918
v 144.643890 -0.000000 54.241459
v 144.643890 -0.000000 36.160973
v 144.643890 -0.000000 72.321945
v 144.643890 -0.000000 18.080486
v 144.643890 0.000000 0.000000
v 144.643890 -0.000000 126.563400
v 144.643890 -0.000000 108.482918
v 144.643890 -0.000000 144.643890
v 144.643890 -0.000000 90.402435
v 144.643890 0.000000 -90.402435
v 144.643890 0.000000 -108.482918
v 144.643890 0.000000 -72.321945
v 144.643890 0.000000 -126.563400
v 144.643890 0.000000 -144.643890
v 144.643890 0.000000 -18.080486
v 144.643890 0.000000 -36.160973
v 144.643890 0.000000 -54.241459
v -54.241459 -0.000000 144.643890
v -36.160973 -0.000000 144.643890
v -72.321945 -0.000000 144.643890
v -18.080486 -0.000000 144.643890
v 0.000000 -0.000000 144.643890
v -126.563400 -0.000000 144.643890
v -108.482918 -0.000000 144.643890
v -144.643890 -0.000000 144.643890
v -90.402435 -0.000000 144.643890
v 90.402435 -0.000000 144.643890
v 108.482918 -0.000000 144.643890
v 72.321945 -0.000000 144.643890
v 126.563400 -0.000000 144.643890
v 18.080486 -0.000000 144.643890
v 36.160973 -0.000000 144.643890
v 54.241459 -0.000000 144.643890
vt 0.999900 0.000100
vt 0.937412 0.062588
vt 0.937412 0.000100
vt 0.999900 0.062588
vt 0.500000 0.500000
vt 0.500000 0.562488
vt 0.437512 0.562488
vt 0.562488 0.500000
vt 0.999900 0.500000
vt 0.999900 0.562488
vt 0.937412 0.562488
vt 0.500000 0.000100
vt 0.437512 0.062588
vt 0.437512 0.000100
vt 0.500000 0.062588
vt 0.437512 0.500000
vt 0.250050 0.500000
vt 0.187564 0.562488
vt 0.187564 0.500000
vt 0.250050 0.562488
vt 0.250050 0.749950
vt 0.187562 0.812438
vt 0.187562 0.749950
vt 0.250050 0.250050
vt 0.250050 0.312538
vt 0.187564 0.312538
vt 0.312538 0.250050
vt 0.500000 0.250050
vt 0.500000 0.312538
vt 0.437512 0.312538
vt 0.250050 0.000100
vt 0.187564 0.062588
vt 0.187564 0.000100
vt 0.250050 0.062588
vt 0.187564 0.250050
vt 0.749950 0.749950
vt 0.749950 0.812438
vt 0.687464 0.812438
vt 0.812438 0.749950
vt 0.999900 0.749950
vt 0.999900 0.812438
vt 0.937412 0.812438
vt 0.500000 0.749950
vt 0.562488 0.749950
vt 0.500000 0.812438
vt 0.562488 0.687464
vt 0.749950 0.500000
vt 0.812438 0.500000
vt 0.749950 0.562488
vt 0.250050 0.812438
vt 0.312538 0.749950
vt 0.437512 0.812438
vt 0.749950 0.250050
vt 0.749950 0.312538
vt 0.687464 0.312538
vt 0.812438 0.250050
vt 0.999900 0.250050
vt 0.999900 0.312538
vt 0.937412 0.312538
vt 0.749950 0.000100
vt 0.687464 0.062588
vt 0.687464 0.000100
vt 0.749950 0.062588
vt 0.687464 0.250050
vt 0.624974 0.250050
vt 0.562488 0.312538
vt 0.562488 0.250050
vt 0.624974 0.312538
vt 0.624974 0.375026
vt 0.562488 0.437512
vt 0.562488 0.375026
vt 0.624974 0.125074
vt 0.624974 0.187564
vt 0.562488 0.187564
vt 0.687464 0.125074
vt 0.749950 0.125074
vt 0.749950 0.187564
vt 0.687464 0.187564
vt 0.624974 0.000100
vt 0.562488 0.062588
vt 0.562488 0.000100
vt 0.624974 0.062588
vt 0.562488 0.125074
vt 0.874926 0.375026
vt 0.874926 0.437512
vt 0.812438 0.437512
vt 0.937412 0.375026
vt 0.999900 0.375026
vt 0.999900 0.437512
vt 0.937412 0.437512
vt 0.749950 0.375026
vt 0.812438 0.375026
vt 0.749950 0.437512
vt 0.812438 0.312538
vt 0.874926 0.250050
vt 0.937412 0.250050
vt 0.874926 0.312538
vt 0.624974 0.437512
vt 0.687464 0.375026
vt 0.687464 0.437512
vt 0.375026 0.874926
vt 0.375026 0.937412
vt 0.312538 0.937412
vt 0.437512 0.874926
vt 0.500000 0.874926
vt 0.500000 0.937412
vt 0.437512 0.937412
vt 0.250050 0.874926
vt 0.312538 0.874926
vt 0.250050 0.937412
vt 0.312538 0.812438
vt 0.375026 0.749950
vt 0.437512 0.749950
vt 0.375026 0.812438
vt 0.125074 0.874926
vt 0.125074 0.937412
vt 0.062588 0.937412
vt 0.187562 0.874926
vt 0.187562 0.937412
vt 0.749950 0.624974
vt 0.812438 0.624974
vt 0.749950 0.687464
vt 0.812438 0.562488
vt 0.874926 0.500000
vt 0.937412 0.500000
vt 0.874926 0.562488
vt 0.624974 0.749950
vt 0.687464 0.687464
vt 0.687464 0.749950
vt 0.624974 0.687464
vt 0.624974 0.624974
vt 0.687464 0.562488
vt 0.687464 0.624974
vt 0.562488 0.874926
vt 0.562488 0.812438
vt 0.624974 0.812438
vt 0.874926 0.874926
vt 0.874926 0.937412
vt 0.812438 0.937412
vt 0.937412 0.874926
vt 0.999900 0.874926
vt 0.999900 0.937412
vt 0.937412 0.937412
vt 0.749950 0.874926
vt 0.812438 0.874926
vt 0.749950 0.937412
vt 0.812438 0.812438
vt 0.874926 0.749950
vt 0.937412 0.749950
vt 0.874926 0.812438
vt 0.624974 0.874926
vt 0.624974 0.937412
vt 0.562488 0.937412
vt 0.687464 0.874926
vt 0.687464 0.937412
vt 0.125074 0.250050
vt 0.062588 0.312538
vt 0.062588 0.250050
vt 0.125074 0.312538
vt 0.125074 0.375026
vt 0.062588 0.437512
vt 0.062588 0.375026
vt 0.125074 0.125074
vt 0.125074 0.187562
vt 0.062588 0.187562
vt 0.187564 0.125074
vt 0.250050 0.125074
vt 0.250050 0.187564
vt 0.187564 0.187564
vt 0.125074 0.000100
vt 0.062588 0.062588
vt 0.062588 0.000100
vt 0.125074 0.062588
vt 0.062588 0.125074
vt 0.375026 0.375026
vt 0.375026 0.437512
vt 0.312538 0.437512
vt 0.437512 0.375026
vt 0.500000 0.375026
vt 0.500000 0.437512
vt 0.437512 0.437512
vt 0.250050 0.375026
vt 0.312538 0.375026
vt 0.250050 0.437512
vt 0.312538 0.312538
vt 0.375026 0.250050
vt 0.437512 0.250050
vt 0.375026 0.312538
vt 0.125074 0.437512
vt 0.187564 0.375026
vt 0.187564 0.437512
vt 0.125074 0.749950
vt 0.062588 0.812438
vt 0.062588 0.749950
vt 0.125074 0.812438
vt 0.062588 0.874926
vt 0.125074 0.624974
vt 0.125074 0.687464
vt 0.062588 0.687464
vt 0.187564 0.624974
vt 0.250050 0.624974
vt 0.250050 0.687464
vt 0.187562 0.687464
vt 0.125074 0.500000
vt 0.062588 0.562488
vt 0.062588 0.500000
vt 0.125074 0.562488
vt 0.062588 0.624974
vt 0.375026 0.500000
vt 0.312538 0.562488
vt 0.312538 0.500000
vt 0.375026 0.562488
vt 0.375026 0.624974
vt 0.312538 0.687464
vt 0.312538 0.624974
vt 0.375026 0.125074
vt 0.375026 0.187564
vt 0.312538 0.187564
vt 0.437512 0.125074
vt 0.500000 0.125074
vt 0.500000 0.187564
vt 0.437512 0.187564
vt 0.375026 0.000100
vt 0.312538 0.062588
vt 0.312538 0.000100
vt 0.375026 0.062588
vt 0.312538 0.125074
vt 0.874926 0.624974
vt 0.874926 0.687464
vt 0.812438 0.687464
vt 0.937412 0.624974
vt 0.999900 0.624974
vt 0.999900 0.687464
vt 0.937412 0.687464
vt 0.500000 0.624974
vt 0.562488 0.624974
vt 0.500000 0.687464
vt 0.562488 0.562488
vt 0.624974 0.500000
vt 0.687464 0.500000
vt 0.624974 0.562488
vt 0.375026 0.687464
vt 0.437512 0.624974
vt 0.437512 0.687464
vt 0.874926 0.125074
vt 0.874926 0.187564
vt 0.812438 0.187564
vt 0.937412 0.125074
vt 0.999900 0.125074
vt 0.999900 0.187564
vt 0.937412 0.187564
vt 0.874926 0.000100
vt 0.812438 0.062588
vt 0.812438 0.000100
vt 0.874926 0.062588
vt 0.812438 0.125074
vt 0.000100 0.687464
vt 0.000100 0.624974
vt 0.000100 0.749950
vt 0.000100 0.562488
vt 0.000100 0.500000
vt 0.000100 0.937412
vt 0.000100 0.874926
vt 0.000100 0.999900
vt 0.000100 0.812438
vt 0.000100 0.187562
vt 0.000100 0.125074
vt 0.000100 0.250050
vt 0.000100 0.062588
vt 0.000100 0.000100
vt 0.000100 0.437512
vt 0.000100 0.375026
vt 0.000100 0.312538
vt 0.687464 0.999900
vt 0.624974 0.999900
vt 0.749950 0.999900
vt 0.562488 0.999900
vt 0.500000 0.999900
vt 0.937412 0.999900
vt 0.874926 0.999900
vt 0.999900 0.999900
vt 0.812438 0.999900
vt 0.187562 0.999900
vt 0.125074 0.999900
vt 0.250050 0.999900
vt 0.062588 0.999900
vt 0.437512 0.999900
vt 0.375026 0.999900
vt 0.312538 0.999900
vn 0.0000 1.0000 0.0000
s 1
f 1/1/1 2/2/1 3/3/1
f 1/1/1 4/4/1 2/2/1
f 5/5/1 6/6/1 7/7/1
f 5/5/1 8/8/1 6/6/1
f 9/9/1 10/10/1 11/11/1
f 12/12/1 13/13/1 14/14/1
f 12/12/1 15/15/1 13/13/1
f 5/5/1 7/7/1 16/16/1
f 17/17/1 18/18/1 19/19/1
f 17/17/1 20/20/1 18/18/1
f 21/21/1 22/22/1 23/23/1
f 24/24/1 25/25/1 26/26/1
f 24/24/1 27/27/1 25/25/1
f 28/28/1 29/29/1 30/30/1
f 31/31/1 32/32/1 33/33/1
f 31/31/1 34/34/1 32/32/1
f 24/24/1 26/26/1 35/35/1
f 36/36/1 37/37/1 38/38/1
f 36/36/1 39/39/1 37/37/1
f 40/40/1 41/41/1 42/42/1
f 43/43/1 44/44/1 45/45/1
f 43/43/1 46/46/1 44/44/1
f 47/47/1 48/48/1 49/49/1
f 21/21/1 50/50/1 22/22/1
f 21/21/1 51/51/1 50/50/1
f 43/43/1 45/45/1 52/52/1
f 53/53/1 54/54/1 55/55/1
f 53/53/1 56/56/1 54/54/1
f 57/57/1 58/58/1 59/59/1
f 60/60/1 61/61/1 62/62/1
f 60/60/1 63/63/1 61/61/1
f 53/53/1 55/55/1 64/64/1
f 65/65/1 66/66/1 67/67/1
f 65/65/1 68/68/1 66/66/1
f 69/69/1 70/70/1 71/71/1
f 72/72/1 73/73/1 74/74/1
f 72/72/1 75/75/1 73/73/1
f 76/76/1 77/77/1 78/78/1
f 79/79/1 80/80/1 81/81/1
f 79/79/1 82/82/1 80/80/1
f 72/72/1 74/74/1 83/83/1
f 84/84/1 85/85/1 86/86/1
f 84/84/1 87/87/1 85/85/1
f 88/88/1 89/89/1 90/90/1
f 91/91/1 92/92/1 93/93/1
f 91/91/1 94/94/1 92/92/1
f 95/95/1 96/96/1 97/97/1
f 69/69/1 98/98/1 70/70/1
f 69/69/1 99/99/1 98/98/1
f 91/91/1 93/93/1 100/100/1
f 101/101/1 102/102/1 103/103/1
f 101/101/1 104/104/1 102/102/1
f 105/105/1 106/106/1 107/107/1
f 108/108/1 109/109/1 110/110/1
f 108/108/1 111/111/1 109/109/1
f 112/112/1 113/113/1 114/114/1
f 115/115/1 116/116/1 117/117/1
f 115/115/1 118/118/1 116/116/1
f 108/108/1 110/110/1 119/119/1
f 120/120/1 121/121/1 122/122/1
f 120/120/1 123/123/1 121/121/1
f 124/124/1 125/125/1 126/126/1
f 127/127/1 128/128/1 129/129/1
f 127/127/1 130/130/1 128/128/1
f 131/131/1 132/132/1 133/133/1
f 105/105/1 134/134/1 106/106/1
f 105/105/1 135/135/1 134/134/1
f 127/127/1 129/129/1 136/136/1
f 137/137/1 138/138/1 139/139/1
f 137/137/1 140/140/1 138/138/1
f 141/141/1 142/142/1 143/143/1
f 144/144/1 145/145/1 146/146/1
f 144/144/1 147/147/1 145/145/1
f 148/148/1 149/149/1 150/150/1
f 151/151/1 152/152/1 153/153/1
f 151/151/1 154/154/1 152/152/1
f 144/144/1 146/146/1 155/155/1
f 156/156/1 157/157/1 158/158/1
f 156/156/1 159/159/1 157/157/1
f 160/160/1 161/161/1 162/162/1
f 163/163/1 164/164/1 165/165/1
f 163/163/1 166/166/1 164/164/1
f 167/167/1 168/168/1 169/169/1
f 170/170/1 171/171/1 172/172/1
f 170/170/1 173/173/1 171/171/1
f 163/163/1 165/165/1 174/174/1
f 175/175/1 176/176/1 177/177/1
f 175/175/1 178/178/1 176/176/1
f 179/179/1 180/180/1 181/181/1
f 182/182/1 183/183/1 184/184/1
f 182/182/1 185/185/1 183/183/1
f 186/186/1 187/187/1 188/188/1
f 160/160/1 189/189/1 161/161/1
f 160/160/1 190/190/1 189/189/1
f 182/182/1 184/184/1 191/191/1
f 192/192/1 193/193/1 194/194/1
f 192/192/1 195/195/1 193/193/1
f 115/115/1 117/117/1 196/196/1
f 197/197/1 198/198/1 199/199/1
f 197/197/1 200/200/1 198/198/1
f 201/201/1 202/202/1 203/203/1
f 204/204/1 205/205/1 206/206/1
f 204/204/1 207/207/1 205/205/1
f 197/197/1 199/199/1 208/208/1
f 209/209/1 210/210/1 211/211/1
f 209/209/1 212/212/1 210/210/1
f 213/213/1 214/214/1 215/215/1
f 216/216/1 217/217/1 218/218/1
f 216/216/1 219/219/1 217/217/1
f 220/220/1 221/221/1 222/222/1
f 223/223/1 224/224/1 225/225/1
f 223/223/1 226/226/1 224/224/1
f 216/216/1 218/218/1 227/227/1
f 228/228/1 229/229/1 230/230/1
f 228/228/1 231/231/1 229/229/1
f 232/232/1 233/233/1 234/234/1
f 235/235/1 236/236/1 237/237/1
f 235/235/1 238/238/1 236/236/1
f 239/239/1 240/240/1 241/241/1
f 213/213/1 242/242/1 214/214/1
f 213/213/1 243/243/1 242/242/1
f 235/235/1 237/237/1 244/244/1
f 245/245/1 246/246/1 247/247/1
f 245/245/1 248/248/1 246/246/1
f 249/249/1 250/250/1 251/251/1
f 252/252/1 253/253/1 254/254/1
f 252/252/1 255/255/1 253/253/1
f 245/245/1 247/247/1 256/256/1
f 256/256/1 77/77/1 76/76/1
f 256/256/1 247/247/1 77/77/1
f 247/247/1 53/53/1 77/77/1
f 253/253/1 256/256/1 76/76/1
f 253/253/1 255/255/1 256/256/1
f 255/255/1 245/245/1 256/256/1
f 254/254/1 63/63/1 60/60/1
f 254/254/1 253/253/1 63/63/1
f 253/253/1 76/76/1 63/63/1
f 251/251/1 96/96/1 95/95/1
f 251/251/1 250/250/1 96/96/1
f 250/250/1 57/57/1 96/96/1
f 246/246/1 251/251/1 95/95/1
f 246/246/1 248/248/1 251/251/1
f 248/248/1 249/249/1 251/251/1
f 247/247/1 56/56/1 53/53/1
f 247/247/1 246/246/1 56/56/1
f 246/246/1 95/95/1 56/56/1
f 244/244/1 113/113/1 112/112/1
f 244/244/1 237/237/1 113/113/1
f 237/237/1 43/43/1 113/113/1
f 242/242/1 244/244/1 112/112/1
f 242/242/1 243/243/1 244/244/1
f 243/243/1 235/235/1 244/244/1
f 214/214/1 51/51/1 21/21/1
f 214/214/1 242/242/1 51/51/1
f 242/242/1 112/112/1 51/51/1
f 241/241/1 132/132/1 131/131/1
f 241/241/1 240/240/1 132/132/1
f 240/240/1 47/47/1 132/132/1
f 236/236/1 241/241/1 131/131/1
f 236/236/1 238/238/1 241/241/1
f 238/238/1 239/239/1 241/241/1
f 237/237/1 46/46/1 43/43/1
f 237/237/1 236/236/1 46/46/1
f 236/236/1 131/131/1 46/46/1
f 234/234/1 149/149/1 148/148/1
f 234/234/1 233/233/1 149/149/1
f 233/233/1 40/40/1 149/149/1
f 229/229/1 234/234/1 148/148/1
f 229/229/1 231/231/1 234/234/1
f 231/231/1 232/232/1 234/234/1
f 230/230/1 39/39/1 36/36/1
f 230/230/1 229/229/1 39/39/1
f 229/229/1 148/148/1 39/39/1
f 227/227/1 168/168/1 167/167/1
f 227/227/1 218/218/1 168/168/1
f 218/218/1 24/24/1 168/168/1
f 224/224/1 227/227/1 167/167/1
f 224/224/1 226/226/1 227/227/1
f 226/226/1 216/216/1 227/227/1
f 225/225/1 34/34/1 31/31/1
f 225/225/1 224/224/1 34/34/1
f 224/224/1 167/167/1 34/34/1
f 222/222/1 187/187/1 186/186/1
f 222/222/1 221/221/1 187/187/1
f 221/221/1 28/28/1 187/187/1
f 217/217/1 222/222/1 186/186/1
f 217/217/1 219/219/1 222/222/1
f 219/219/1 220/220/1 222/222/1
f 218/218/1 27/27/1 24/24/1
f 218/218/1 217/217/1 27/27/1
f 217/217/1 186/186/1 27/27/1
f 215/215/1 202/202/1 201/201/1
f 215/215/1 214/214/1 202/202/1
f 214/214/1 21/21/1 202/202/1
f 210/210/1 215/215/1 201/201/1
f 210/210/1 212/212/1 215/215/1
f 212/212/1 213/213/1 215/215/1
f 211/211/1 20/20/1 17/17/1
f 211/211/1 210/210/1 20/20/1
f 210/210/1 201/201/1 20/20/1
f 208/208/1 257/257/1 258/258/1
f 208/208/1 199/199/1 257/257/1
f 199/199/1 259/259/1 257/257/1
f 205/205/1 208/208/1 258/258/1
f 205/205/1 207/207/1 208/208/1
f 207/207/1 197/197/1 208/208/1
f 206/206/1 260/260/1 261/261/1
f 206/206/1 205/205/1 260/260/1
f 205/205/1 258/258/1 260/260/1
f 203/203/1 23/23/1 192/192/1
f 203/203/1 202/202/1 23/23/1
f 202/202/1 21/21/1 23/23/1
f 198/198/1 203/203/1 192/192/1
f 198/198/1 200/200/1 203/203/1
f 200/200/1 201/201/1 203/203/1
f 199/199/1 194/194/1 259/259/1
f 199/199/1 198/198/1 194/194/1
f 198/198/1 192/192/1 194/194/1
f 196/196/1 262/262/1 263/263/1
f 196/196/1 117/117/1 262/262/1
f 117/117/1 264/264/1 262/262/1
f 193/193/1 196/196/1 263/263/1
f 193/193/1 195/195/1 196/196/1
f 195/195/1 115/115/1 196/196/1
f 194/194/1 265/265/1 259/259/1
f 194/194/1 193/193/1 265/265/1
f 193/193/1 263/263/1 265/265/1
f 191/191/1 19/19/1 204/204/1
f 191/191/1 184/184/1 19/19/1
f 184/184/1 17/17/1 19/19/1
f 189/189/1 191/191/1 204/204/1
f 189/189/1 190/190/1 191/191/1
f 190/190/1 182/182/1 191/191/1
f 161/161/1 206/206/1 261/261/1
f 161/161/1 189/189/1 206/206/1
f 189/189/1 204/204/1 206/206/1
f 188/188/1 30/30/1 175/175/1
f 188/188/1 187/187/1 30/30/1
f 187/187/1 28/28/1 30/30/1
f 183/183/1 188/188/1 175/175/1
f 183/183/1 185/185/1 188/188/1
f 185/185/1 186/186/1 188/188/1
f 184/184/1 177/177/1 17/17/1
f 184/184/1 183/183/1 177/177/1
f 183/183/1 175/175/1 177/177/1
f 181/181/1 16/16/1 209/209/1
f 181/181/1 180/180/1 16/16/1
f 180/180/1 5/5/1 16/16/1
f 176/176/1 181/181/1 209/209/1
f 176/176/1 178/178/1 181/181/1
f 178/178/1 179/179/1 181/181/1
f 177/177/1 211/211/1 17/17/1
f 177/177/1 176/176/1 211/211/1
f 176/176/1 209/209/1 211/211/1
f 174/174/1 266/266/1 267/267/1
f 174/174/1 165/165/1 266/266/1
f 165/165/1 268/268/1 266/266/1
f 171/171/1 174/174/1 267/267/1
f 171/171/1 173/173/1 174/174/1
f 173/173/1 163/163/1 174/174/1
f 172/172/1 269/269/1 270/270/1
f 172/172/1 171/171/1 269/269/1
f 171/171/1 267/267/1 269/269/1
f 169/169/1 35/35/1 156/156/1
f 169/169/1 168/168/1 35/35/1
f 168/168/1 24/24/1 35/35/1
f 164/164/1 169/169/1 156/156/1
f 164/164/1 166/166/1 169/169/1
f 166/166/1 167/167/1 169/169/1
f 165/165/1 158/158/1 268/268/1
f 165/165/1 164/164/1 158/158/1
f 164/164/1 156/156/1 158/158/1
f 162/162/1 271/271/1 272/272/1
f 162/162/1 161/161/1 271/271/1
f 161/161/1 261/261/1 271/271/1
f 157/157/1 162/162/1 272/272/1
f 157/157/1 159/159/1 162/162/1
f 159/159/1 160/160/1 162/162/1
f 158/158/1 273/273/1 268/268/1
f 158/158/1 157/157/1 273/273/1
f 157/157/1 272/272/1 273/273/1
f 155/155/1 274/274/1 275/275/1
f 155/155/1 146/146/1 274/274/1
f 146/146/1 276/276/1 274/274/1
f 152/152/1 155/155/1 275/275/1
f 152/152/1 154/154/1 155/155/1
f 154/154/1 144/144/1 155/155/1
f 153/153/1 277/277/1 278/278/1
f 153/153/1 152/152/1 277/277/1
f 152/152/1 275/275/1 277/277/1
f 150/150/1 42/42/1 137/137/1
f 150/150/1 149/149/1 42/42/1
f 149/149/1 40/40/1 42/42/1
f 145/145/1 150/150/1 137/137/1
f 145/145/1 147/147/1 150/150/1
f 147/147/1 148/148/1 150/150/1
f 146/146/1 139/139/1 276/276/1
f 146/146/1 145/145/1 139/139/1
f 145/145/1 137/137/1 139/139/1
f 143/143/1 279/279/1 280/280/1
f 143/143/1 142/142/1 279/279/1
f 142/142/1 281/281/1 279/279/1
f 138/138/1 143/143/1 280/280/1
f 138/138/1 140/140/1 143/143/1
f 140/140/1 141/141/1 143/143/1
f 139/139/1 282/282/1 276/276/1
f 139/139/1 138/138/1 282/282/1
f 138/138/1 280/280/1 282/282/1
f 136/136/1 38/38/1 151/151/1
f 136/136/1 129/129/1 38/38/1
f 129/129/1 36/36/1 38/38/1
f 134/134/1 136/136/1 151/151/1
f 134/134/1 135/135/1 136/136/1
f 135/135/1 127/127/1 136/136/1
f 106/106/1 153/153/1 278/278/1
f 106/106/1 134/134/1 153/153/1
f 134/134/1 151/151/1 153/153/1
f 133/133/1 49/49/1 120/120/1
f 133/133/1 132/132/1 49/49/1
f 132/132/1 47/47/1 49/49/1
f 128/128/1 133/133/1 120/120/1
f 128/128/1 130/130/1 133/133/1
f 130/130/1 131/131/1 133/133/1
f 129/129/1 122/122/1 36/36/1
f 129/129/1 128/128/1 122/122/1
f 128/128/1 120/120/1 122/122/1
f 126/126/1 11/11/1 228/228/1
f 126/126/1 125/125/1 11/11/1
f 125/125/1 9/9/1 11/11/1
f 121/121/1 126/126/1 228/228/1
f 121/121/1 123/123/1 126/126/1
f 123/123/1 124/124/1 126/126/1
f 122/122/1 230/230/1 36/36/1
f 122/122/1 121/121/1 230/230/1
f 121/121/1 228/228/1 230/230/1
f 119/119/1 283/283/1 284/284/1
f 119/119/1 110/110/1 283/283/1
f 110/110/1 285/285/1 283/283/1
f 116/116/1 119/119/1 284/284/1
f 116/116/1 118/118/1 119/119/1
f 118/118/1 108/108/1 119/119/1
f 117/117/1 286/286/1 264/264/1
f 117/117/1 116/116/1 286/286/1
f 116/116/1 284/284/1 286/286/1
f 114/114/1 52/52/1 101/101/1
f 114/114/1 113/113/1 52/52/1
f 113/113/1 43/43/1 52/52/1
f 109/109/1 114/114/1 101/101/1
f 109/109/1 111/111/1 114/114/1
f 111/111/1 112/112/1 114/114/1
f 110/110/1 103/103/1 285/285/1
f 110/110/1 109/109/1 103/103/1
f 109/109/1 101/101/1 103/103/1
f 107/107/1 287/287/1 288/288/1
f 107/107/1 106/106/1 287/287/1
f 106/106/1 278/278/1 287/287/1
f 102/102/1 107/107/1 288/288/1
f 102/102/1 104/104/1 107/107/1
f 104/104/1 105/105/1 107/107/1
f 103/103/1 289/289/1 285/285/1
f 103/103/1 102/102/1 289/289/1
f 102/102/1 288/288/1 289/289/1
f 100/100/1 240/240/1 239/239/1
f 100/100/1 93/93/1 240/240/1
f 93/93/1 47/47/1 240/240/1
f 98/98/1 100/100/1 239/239/1
f 98/98/1 99/99/1 100/100/1
f 99/99/1 91/91/1 100/100/1
f 70/70/1 8/8/1 5/5/1
f 70/70/1 98/98/1 8/8/1
f 98/98/1 239/239/1 8/8/1
f 97/97/1 59/59/1 84/84/1
f 97/97/1 96/96/1 59/59/1
f 96/96/1 57/57/1 59/59/1
f 92/92/1 97/97/1 84/84/1
f 92/92/1 94/94/1 97/97/1
f 94/94/1 95/95/1 97/97/1
f 93/93/1 86/86/1 47/47/1
f 93/93/1 92/92/1 86/86/1
f 92/92/1 84/84/1 86/86/1
f 90/90/1 125/125/1 124/124/1
f 90/90/1 89/89/1 125/125/1
f 89/89/1 9/9/1 125/125/1
f 85/85/1 90/90/1 124/124/1
f 85/85/1 87/87/1 90/90/1
f 87/87/1 88/88/1 90/90/1
f 86/86/1 48/48/1 47/47/1
f 86/86/1 85/85/1 48/48/1
f 85/85/1 124/124/1 48/48/1
f 83/83/1 221/221/1 220/220/1
f 83/83/1 74/74/1 221/221/1
f 74/74/1 28/28/1 221/221/1
f 80/80/1 83/83/1 220/220/1
f 80/80/1 82/82/1 83/83/1
f 82/82/1 72/72/1 83/83/1
f 81/81/1 15/15/1 12/12/1
f 81/81/1 80/80/1 15/15/1
f 80/80/1 220/220/1 15/15/1
f 78/78/1 64/64/1 65/65/1
f 78/78/1 77/77/1 64/64/1
f 77/77/1 53/53/1 64/64/1
f 73/73/1 78/78/1 65/65/1
f 73/73/1 75/75/1 78/78/1
f 75/75/1 76/76/1 78/78/1
f 74/74/1 67/67/1 28/28/1
f 74/74/1 73/73/1 67/67/1
f 73/73/1 65/65/1 67/67/1
f 71/71/1 180/180/1 179/179/1
f 71/71/1 70/70/1 180/180/1
f 70/70/1 5/5/1 180/180/1
f 66/66/1 71/71/1 179/179/1
f 66/66/1 68/68/1 71/71/1
f 68/68/1 69/69/1 71/71/1
f 67/67/1 29/29/1 28/28/1
f 67/67/1 66/66/1 29/29/1
f 66/66/1 179/179/1 29/29/1
f 64/64/1 68/68/1 65/65/1
f 64/64/1 55/55/1 68/68/1
f 55/55/1 69/69/1 68/68/1
f 61/61/1 75/75/1 72/72/1
f 61/61/1 63/63/1 75/75/1
f 63/63/1 76/76/1 75/75/1
f 62/62/1 82/82/1 79/79/1
f 62/62/1 61/61/1 82/82/1
f 61/61/1 72/72/1 82/82/1
f 59/59/1 87/87/1 84/84/1
f 59/59/1 58/58/1 87/87/1
f 58/58/1 88/88/1 87/87/1
f 54/54/1 94/94/1 91/91/1
f 54/54/1 56/56/1 94/94/1
f 56/56/1 95/95/1 94/94/1
f 55/55/1 99/99/1 69/69/1
f 55/55/1 54/54/1 99/99/1
f 54/54/1 91/91/1 99/99/1
f 52/52/1 104/104/1 101/101/1
f 52/52/1 45/45/1 104/104/1
f 45/45/1 105/105/1 104/104/1
f 50/50/1 111/111/1 108/108/1
f 50/50/1 51/51/1 111/111/1
f 51/51/1 112/112/1 111/111/1
f 22/22/1 118/118/1 115/115/1
f 22/22/1 50/50/1 118/118/1
f 50/50/1 108/108/1 118/118/1
f 49/49/1 123/123/1 120/120/1
f 49/49/1 48/48/1 123/123/1
f 48/48/1 124/124/1 123/123/1
f 44/44/1 130/130/1 127/127/1
f 44/44/1 46/46/1 130/130/1
f 46/46/1 131/131/1 130/130/1
f 45/45/1 135/135/1 105/105/1
f 45/45/1 44/44/1 135/135/1
f 44/44/1 127/127/1 135/135/1
f 42/42/1 140/140/1 137/137/1
f 42/42/1 41/41/1 140/140/1
f 41/41/1 141/141/1 140/140/1
f 37/37/1 147/147/1 144/144/1
f 37/37/1 39/39/1 147/147/1
f 39/39/1 148/148/1 147/147/1
f 38/38/1 154/154/1 151/151/1
f 38/38/1 37/37/1 154/154/1
f 37/37/1 144/144/1 154/154/1
f 35/35/1 159/159/1 156/156/1
f 35/35/1 26/26/1 159/159/1
f 26/26/1 160/160/1 159/159/1
f 32/32/1 166/166/1 163/163/1
f 32/32/1 34/34/1 166/166/1
f 34/34/1 167/167/1 166/166/1
f 33/33/1 173/173/1 170/170/1
f 33/33/1 32/32/1 173/173/1
f 32/32/1 163/163/1 173/173/1
f 30/30/1 178/178/1 175/175/1
f 30/30/1 29/29/1 178/178/1
f 29/29/1 179/179/1 178/178/1
f 25/25/1 185/185/1 182/182/1
f 25/25/1 27/27/1 185/185/1
f 27/27/1 186/186/1 185/185/1
f 26/26/1 190/190/1 160/160/1
f 26/26/1 25/25/1 190/190/1
f 25/25/1 182/182/1 190/190/1
f 23/23/1 195/195/1 192/192/1
f 23/23/1 22/22/1 195/195/1
f 22/22/1 115/115/1 195/195/1
f 18/18/1 200/200/1 197/197/1
f 18/18/1 20/20/1 200/200/1
f 20/20/1 201/201/1 200/200/1
f 19/19/1 207/207/1 204/204/1
f 19/19/1 18/18/1 207/207/1
f 18/18/1 197/197/1 207/207/1
f 16/16/1 212/212/1 209/209/1
f 16/16/1 7/7/1 212/212/1
f 7/7/1 213/213/1 212/212/1
f 13/13/1 219/219/1 216/216/1
f 13/13/1 15/15/1 219/219/1
f 15/15/1 220/220/1 219/219/1
f 14/14/1 226/226/1 223/223/1
f 14/14/1 13/13/1 226/226/1
f 13/13/1 216/216/1 226/226/1
f 11/11/1 231/231/1 228/228/1
f 11/11/1 10/10/1 231/231/1
f 10/10/1 232/232/1 231/231/1
f 6/6/1 238/238/1 235/235/1
f 6/6/1 8/8/1 238/238/1
f 8/8/1 239/239/1 238/238/1
f 7/7/1 243/243/1 213/213/1
f 7/7/1 6/6/1 243/243/1
f 6/6/1 235/235/1 243/243/1
f 2/2/1 248/248/1 245/245/1
f 2/2/1 4/4/1 248/248/1
f 4/4/1 249/249/1 248/248/1
f 3/3/1 255/255/1 252/252/1
f 3/3/1 2/2/1 255/255/1
f 2/2/1 245/245/1 255/255/1
