# UnrealEd OBJ exporter (_Internal)



v 0.000000 50.000000 0.000002

v 1.902991 49.039261 -9.567089

v -0.000000 49.039261 -9.754515

v -0.000001 46.193970 -19.134171

v 3.732851 46.193970 -18.766521

v -0.000001 41.573479 -27.778511

v 0.000000 50.000000 0.000002

v 3.732873 49.039261 -9.012004

v 5.419260 41.573479 -27.244766

v -0.000002 35.355339 -35.355335

v 7.322294 46.193970 -17.677683

v 0.000000 50.000000 0.000002

v 5.419303 49.039261 -8.110593

v 6.897409 35.355339 -34.676006

v -0.000002 27.778511 -41.573479

v 10.630323 41.573479 -25.664021

v 10.630345 46.193970 -15.909502

v 0.000000 50.000000 0.000002

v 6.897471 49.039261 -6.897496

v 8.110496 27.778511 -40.774673

v -0.000002 19.134171 -46.193970

v 13.529835 35.355339 -32.664101

v 15.432869 41.573479 -23.097019

v 9.011899 19.134171 -45.306385

v -0.000002 9.754517 -49.039257

v 15.909404 27.778511 -38.408920

v 9.566980 9.754517 -48.097004

v -0.000002 0.000004 -49.999996

v 17.677580 19.134171 -42.677700

v 19.642315 35.355339 -29.396927

v 23.096920 27.778511 -34.567131

v 9.754410 0.000004 -49.039284

v -0.000002 -9.754509 -49.039261

v 18.766418 9.754517 -45.306404

v 9.566981 -9.754509 -48.097008

v -0.000002 -19.134163 -46.193974

v 19.134075 0.000004 -46.194012

v 25.663919 19.134171 -38.408932

v 27.244673 9.754517 -40.774708

v 9.011900 -19.134163 -45.306389

v -0.000002 -27.778509 -41.573479

v 18.766420 -9.754509 -45.306408

v 8.110496 -27.778509 -40.774673

v -0.000002 -35.355339 -35.355335

v 17.677582 -19.134163 -42.677704

v 27.778429 0.000004 -41.573532

v 27.244675 -9.754509 -40.774708

v 6.897409 -35.355339 -34.676006

v -0.000001 -41.573483 -27.778507

v 15.909404 -27.778509 -38.408920

v 5.419259 -41.573483 -27.244764

v -0.000001 -46.193981 -19.134161

v 13.529835 -35.355339 -32.664101

v 25.663921 -19.134163 -38.408936

v 23.096920 -27.778509 -34.567131

v 3.732849 -46.193981 -18.766512

v -0.000000 -49.039265 -9.754502

v 10.630322 -41.573483 -25.664017

v 0.000000 -50.000000 0.000002

v 1.902989 -49.039265 -9.567077

v 19.642315 -35.355339 -29.396927

v 7.322290 -46.193981 -17.677675

v 15.432867 -41.573483 -23.097015

v 0.000000 -50.000000 0.000002

v 3.732868 -49.039265 -9.011992

v 10.630340 -46.193981 -15.909494

v 0.000000 -50.000000 0.000002

v 5.419296 -49.039265 -8.110582

v 0.000000 -50.000000 0.000002

v 6.897462 -49.039265 -6.897487

v 13.529870 -46.193981 -13.529921

v 19.642334 -41.573483 -19.642408

v 0.000000 -50.000000 0.000002

v 8.110564 -49.039265 -5.419325

v 15.909455 -46.193981 -10.630400

v 23.096958 -41.573483 -15.432954

v 24.999950 -35.355339 -25.000046

v 29.396854 -35.355339 -19.642427

v 29.396833 -27.778509 -29.396946

v 34.567043 -27.778509 -23.097052

v 32.664009 -19.134163 -32.664135

v 38.408840 -19.134163 -25.664068

v 34.675930 -9.754509 -34.676060

v 40.774609 -9.754509 -27.244831

v 35.355270 0.000004 -35.355404

v 41.573429 0.000004 -27.778587

v 34.675926 9.754517 -34.676056

v 40.774605 9.754517 -27.244829

v 32.664009 19.134171 -32.664131

v 38.408836 19.134171 -25.664066

v 29.396833 27.778511 -29.396946

v 34.567043 27.778511 -23.097052

v 24.999950 35.355339 -25.000046

v 29.396854 35.355339 -19.642427

v 19.642336 41.573479 -19.642410

v 23.096960 41.573479 -15.432957

v 13.529877 46.193970 -13.529927

v 15.909463 46.193970 -10.630404

v 8.110574 49.039261 -5.419332

v 0.000000 50.000000 0.000002

v 0.000000 50.000000 0.000002

v 9.011992 49.039261 -3.732906

v 17.677658 46.193970 -7.322360

v 0.000000 50.000000 0.000002

v 9.567083 49.039261 -1.903026

v 25.663980 41.573479 -10.630420

v 18.766508 46.193970 -3.732921

v 0.000000 50.000000 0.000002

v 9.754517 49.039261 -0.000013

v 32.664051 35.355339 -13.529959

v 27.244747 41.573479 -5.419363

v 19.134172 46.193970 -0.000029

v 0.000000 50.000000 0.000002

v 9.567089 49.039261 1.902999

v 38.408859 27.778511 -15.909549

v 34.675983 35.355339 -6.897541

v 27.778513 41.573479 -0.000042

v 42.677635 19.134171 -17.677742

v 40.774647 27.778511 -8.110651

v 45.306335 9.754517 -18.766590

v 45.306355 19.134171 -9.012072

v 35.355339 35.355339 -0.000055

v 41.573483 27.778511 -0.000065

v 46.193943 0.000004 -19.134251

v 48.096970 9.754517 -9.567164

v 45.306339 -9.754509 -18.766592

v 49.039249 0.000004 -9.754597

v 46.193974 19.134171 -0.000072

v 49.039261 9.754517 -0.000077

v 42.677639 -19.134163 -17.677744

v 48.096973 -9.754509 -9.567165

v 38.408859 -27.778509 -15.909549

v 45.306358 -19.134163 -9.012073

v 50.000000 0.000004 -0.000078

v 49.039265 -9.754509 -0.000077

v 32.664051 -35.355339 -13.529959

v 40.774647 -27.778509 -8.110651

v 25.663977 -41.573483 -10.630419

v 34.675983 -35.355339 -6.897541

v 46.193977 -19.134163 -0.000072

v 41.573483 -27.778509 -0.000065

v 17.677649 -46.193981 -7.322356

v 27.244743 -41.573483 -5.419362

v 0.000000 -50.000000 0.000002

v 9.011980 -49.039265 -3.732901

v 35.355339 -35.355339 -0.000055

v 18.766499 -46.193981 -3.732919

v 27.778509 -41.573483 -0.000042

v 0.000000 -50.000000 0.000002

v 9.567071 -49.039265 -1.903023

v 19.134163 -46.193981 -0.000029

v 0.000000 -50.000000 0.000002

v 9.754504 -49.039265 -0.000013

v 0.000000 -50.000000 0.000002

v 9.567077 -49.039265 1.902997

v 18.766510 -46.193981 3.732863

v 27.244761 -41.573483 5.419279

v 0.000000 -50.000000 0.000002

v 9.011992 -49.039265 3.732876

v 17.677671 -46.193981 7.322304

v 25.664011 -41.573483 10.630340

v 34.676006 -35.355339 6.897434

v 32.664093 -35.355339 13.529857

v 40.774670 -27.778509 8.110523

v 38.408913 -27.778509 15.909429

v 45.306385 -19.134163 9.011930

v 42.677696 -19.134163 17.677610

v 48.097004 -9.754509 9.567014

v 45.306400 -9.754509 18.766451

v 49.039276 0.000004 9.754443

v 46.194004 0.000004 19.134106

v 48.097000 9.754517 9.567014

v 45.306396 9.754517 18.766449

v 45.306381 19.134171 9.011930

v 42.677692 19.134171 17.677608

v 40.774670 27.778511 8.110523

v 38.408913 27.778511 15.909429

v 34.676006 35.355339 6.897434

v 32.664093 35.355339 13.529857

v 27.244764 41.573479 5.419280

v 25.664015 41.573479 10.630342

v 18.766520 46.193970 3.732865

v 17.677681 46.193970 7.322308

v 9.012004 49.039261 3.732881

v 0.000000 50.000000 0.000002

v 0.000000 50.000000 0.000002

v 8.110592 49.039261 5.419311

v 15.909497 46.193970 10.630357

v 0.000000 50.000000 0.000002

v 6.897493 49.039261 6.897479

v 23.097010 41.573479 15.432886

v 13.529920 46.193970 13.529887

v 0.000000 50.000000 0.000002

v 5.419329 49.039261 8.110579

v 29.396917 35.355339 19.642336

v 19.642399 41.573479 19.642351

v 10.630396 46.193970 15.909472

v 0.000000 50.000000 0.000002

v 3.732902 49.039261 9.011996

v 34.567120 27.778511 23.096945

v 25.000031 35.355339 24.999969

v 15.432943 41.573479 23.096973

v 38.408920 19.134171 25.663946

v 29.396929 27.778511 29.396856

v 40.774693 9.754517 27.244701

v 32.664112 19.134171 32.664036

v 19.642410 35.355339 29.396868

v 23.097033 27.778511 34.567062

v 41.573517 0.000004 27.778458

v 34.676037 9.754517 34.675953

v 40.774696 -9.754509 27.244703

v 35.355385 0.000004 35.355297

v 25.664043 19.134171 38.408859

v 27.244804 9.754517 40.774628

v 38.408924 -19.134163 25.663948

v 34.676041 -9.754509 34.675957

v 34.567120 -27.778509 23.096945

v 32.664116 -19.134163 32.664036

v 27.778563 0.000004 41.573452

v 27.244806 -9.754509 40.774628

v 29.396917 -35.355339 19.642336

v 29.396929 -27.778509 29.396856

v 23.097008 -41.573483 15.432883

v 25.000031 -35.355339 24.999969

v 25.664045 -19.134163 38.408863

v 23.097033 -27.778509 34.567062

v 15.909490 -46.193981 10.630352

v 19.642397 -41.573483 19.642349

v 0.000000 -50.000000 0.000002

v 8.110581 -49.039265 5.419303

v 19.642410 -35.355339 29.396868

v 13.529913 -46.193981 13.529881

v 15.432941 -41.573483 23.096970

v 0.000000 -50.000000 0.000002

v 6.897485 -49.039265 6.897470

v 10.630391 -46.193981 15.909464

v 0.000000 -50.000000 0.000002

v 5.419322 -49.039265 8.110569

v 0.000000 -50.000000 0.000002

v 3.732897 -49.039265 9.011984

v 7.322347 -46.193981 17.677654

v 10.630404 -41.573483 25.663986

v 0.000000 -50.000000 0.000002

v 1.903019 -49.039265 9.567074

v 3.732910 -46.193981 18.766502

v 5.419347 -41.573483 27.244749

v 13.529939 -35.355339 32.664063

v 6.897521 -35.355339 34.675991

v 15.909526 -27.778509 38.408875

v 8.110627 -27.778509 40.774654

v 17.677717 -19.134163 42.677654

v 9.012046 -19.134163 45.306366

v 18.766565 -9.754509 45.306355

v 9.567137 -9.754509 48.096981

v 19.134224 0.000004 46.193958

v 9.754567 0.000004 49.039257

v 18.766563 9.754517 45.306351

v 9.567136 9.754517 48.096977

v 17.677715 19.134171 42.677650

v 9.012045 19.134171 45.306362

v 15.909526 27.778511 38.408875

v 8.110627 27.778511 40.774654

v 13.529939 35.355339 32.664063

v 6.897521 35.355339 34.675991

v 10.630405 41.573479 25.663990

v 5.419348 41.573479 27.244753

v 7.322351 46.193970 17.677664

v 3.732912 46.193970 18.766512

v 1.903022 49.039261 9.567086

v 0.000000 50.000000 0.000002

v 0.000000 50.000000 0.000002

v 0.000009 49.039261 9.754519

v 0.000018 46.193970 19.134174

v 0.000000 50.000000 0.000002

v -1.903003 49.039261 9.567090

v 0.000027 41.573479 27.778515

v -3.732875 46.193970 18.766520

v 0.000000 50.000000 0.000002

v -3.732885 49.039261 9.012003

v 0.000034 35.355339 35.355343

v -5.419295 41.573479 27.244762

v -7.322317 46.193970 17.677679

v 0.000000 50.000000 0.000002

v -5.419313 49.039261 8.110590

v 0.000040 27.778511 41.573486

v -6.897454 35.355339 34.676006

v -10.630356 41.573479 25.664011

v 0.000045 19.134171 46.193977

v -8.110548 27.778511 40.774670

v 0.000047 9.754517 49.039265

v -9.011957 19.134171 45.306381

v -13.529876 35.355339 32.664089

v -15.909451 27.778511 38.408909

v 0.000048 0.000004 50.000004

v -9.567043 9.754517 48.096996

v 0.000047 -9.754509 49.039268

v -9.754473 0.000004 49.039276

v -17.677633 19.134171 42.677685

v -18.766476 9.754517 45.306389

v 0.000045 -19.134163 46.193981

v -9.567043 -9.754509 48.097000

v 0.000040 -27.778509 41.573486

v -9.011958 -19.134163 45.306385

v -19.134134 0.000004 46.193996

v -18.766478 -9.754509 45.306393

v 0.000034 -35.355339 35.355343

v -8.110548 -27.778509 40.774670

v 0.000027 -41.573483 27.778511

v -6.897454 -35.355339 34.676006

v -17.677635 -19.134163 42.677689

v -15.909451 -27.778509 38.408909

v 0.000018 -46.193981 19.134165

v -5.419294 -41.573483 27.244759

v 0.000000 -50.000000 0.000002

v 0.000009 -49.039265 9.754506

v -13.529876 -35.355339 32.664089

v -3.732873 -46.193981 18.766510

v -10.630354 -41.573483 25.664007

v 0.000000 -50.000000 0.000002

v -1.903001 -49.039265 9.567078

v -7.322313 -46.193981 17.677670

v 0.000000 -50.000000 0.000002

v -3.732880 -49.039265 9.011992

v 0.000000 -50.000000 0.000002

v -5.419306 -49.039265 8.110579

v -10.630361 -46.193981 15.909485

v -15.432897 -41.573483 23.097000

v 0.000000 -50.000000 0.000002

v -6.897472 -49.039265 6.897483

v -13.529888 -46.193981 13.529907

v -19.642361 -41.573483 19.642387

v -19.642353 -35.355339 29.396906

v -24.999985 -35.355339 25.000019

v -23.096966 -27.778509 34.567108

v -29.396873 -27.778509 29.396914

v -25.663971 -19.134163 38.408913

v -32.664055 -19.134163 32.664101

v -27.244726 -9.754509 40.774681

v -34.675976 -9.754509 34.676022

v -27.778482 0.000004 41.573505

v -35.355316 0.000004 35.355366

v -27.244724 9.754517 40.774677

v -34.675972 9.754517 34.676022

v -25.663969 19.134171 38.408909

v -32.664051 19.134171 32.664097

v -23.096966 27.778511 34.567108

v -29.396873 27.778511 29.396914

v -19.642353 35.355339 29.396906

v -24.999985 35.355339 25.000019

v -15.432899 41.573479 23.097002

v -19.642363 41.573479 19.642389

v -10.630365 46.193970 15.909492

v -13.529895 46.193970 13.529914

v -6.897480 49.039261 6.897492

v 0.000000 50.000000 0.000002

v 0.000000 50.000000 0.000002

v -8.110581 49.039261 5.419326

v -15.909477 46.193970 10.630388

v 0.000000 50.000000 0.000002

v -9.011996 49.039261 3.732898

v -23.096981 41.573479 15.432930

v -17.677666 46.193970 7.322341

v 0.000000 50.000000 0.000002

v -9.567085 49.039261 1.903018

v -29.396879 35.355339 19.642393

v -25.663994 41.573479 10.630391

v -18.766514 46.193970 3.732902

v 0.000000 50.000000 0.000002

v -9.754517 49.039261 0.000005

v -34.567074 27.778511 23.097012

v -32.664066 35.355339 13.529920

v -27.244755 41.573479 5.419333

v -38.408871 19.134171 25.664021

v -38.408882 27.778511 15.909503

v -40.774639 9.754517 27.244780

v -42.677658 19.134171 17.677691

v -34.675991 35.355339 6.897501

v -40.774654 27.778511 8.110602

v -41.573463 0.000004 27.778538

v -45.306358 9.754517 18.766537

v -40.774643 -9.754509 27.244781

v -46.193966 0.000004 19.134195

v -45.306366 19.134171 9.012018

v -48.096981 9.754517 9.567107

v -38.408875 -19.134163 25.664022

v -45.306362 -9.754509 18.766537

v -34.567074 -27.778509 23.097012

v -42.677662 -19.134163 17.677692

v -49.039261 0.000004 9.754539

v -48.096985 -9.754509 9.567107

v -29.396879 -35.355339 19.642393

v -38.408882 -27.778509 15.909503

v -23.096977 -41.573483 15.432928

v -32.664066 -35.355339 13.529920

v -45.306370 -19.134163 9.012018

v -40.774654 -27.778509 8.110602

v -15.909469 -46.193981 10.630383

v -25.663990 -41.573483 10.630389

v 0.000000 -50.000000 0.000002

v -8.110571 -49.039265 5.419319

v -34.675991 -35.355339 6.897501

v -17.677658 -46.193981 7.322338

v -27.244751 -41.573483 5.419332

v 0.000000 -50.000000 0.000002

v -9.011985 -49.039265 3.732894

v -18.766504 -46.193981 3.732900

v 0.000000 -50.000000 0.000002

v -9.567073 -49.039265 1.903015

v 0.000000 -50.000000 0.000002

v -9.754504 -49.039265 0.000005

v -19.134163 -46.193981 0.000008

v -27.778509 -41.573483 0.000011

v 0.000000 -50.000000 0.000002

v -9.567075 -49.039265 -1.903005

v -18.766506 -46.193981 -3.732883

v -27.244753 -41.573483 -5.419309

v -35.355339 -35.355339 0.000014

v -34.675999 -35.355339 -6.897474

v -41.573483 -27.778509 0.000016

v -40.774662 -27.778509 -8.110573

v -46.193977 -19.134163 0.000017

v -45.306374 -19.134163 -9.011985

v -49.039265 -9.754509 0.000018

v -48.096989 -9.754509 -9.567073

v -50.000000 0.000004 0.000018

v -49.039265 0.000004 -9.754502

v -49.039261 9.754517 0.000018

v -48.096985 9.754517 -9.567072

v -46.193974 19.134171 0.000017

v -45.306370 19.134171 -9.011984

v -41.573483 27.778511 0.000016

v -40.774662 27.778511 -8.110573

v -35.355339 35.355339 0.000014

v -34.675999 35.355339 -6.897474

v -27.778513 41.573479 0.000011

v -27.244757 41.573479 -5.419310

v -19.134172 46.193970 0.000008

v -18.766516 46.193970 -3.732885

v -9.567086 49.039261 -1.903007

v 0.000000 50.000000 0.000002

v 0.000000 50.000000 0.000002

v -9.011999 49.039261 -3.732888

v -17.677671 46.193970 -7.322325

v 0.000000 50.000000 0.000002

v -8.110584 49.039261 -5.419316

v -25.664001 41.573479 -10.630370

v -15.909484 46.193970 -10.630374

v 0.000000 50.000000 0.000002

v -6.897485 49.039261 -6.897482

v -32.664078 35.355339 -13.529895

v -23.096991 41.573479 -15.432912

v -13.529902 46.193970 -13.529901

v 0.000000 50.000000 0.000002

v -5.419319 49.039261 -8.110582

v -38.408894 27.778511 -15.909474

v -29.396891 35.355339 -19.642370

v -19.642374 41.573479 -19.642372

v -42.677670 19.134171 -17.677660

v -34.567089 27.778511 -23.096985

v -45.306374 9.754517 -18.766502

v -38.408886 19.134171 -25.663992

v -25.000000 35.355339 -24.999998

v -29.396891 27.778511 -29.396889

v -46.193981 0.000004 -19.134161

v -40.774658 9.754517 -27.244749

v -45.306377 -9.754509 -18.766504

v -41.573483 0.000004 -27.778507

v -32.664070 19.134171 -32.664066

v -34.675995 9.754517 -34.675991

v -42.677673 -19.134163 -17.677660

v -40.774662 -9.754509 -27.244751

v -38.408894 -27.778509 -15.909474

v -38.408890 -19.134163 -25.663994

v -35.355339 0.000004 -35.355335

v -34.675995 -9.754509 -34.675991

v -32.664078 -35.355339 -13.529895

v -34.567089 -27.778509 -23.096985

v -25.663998 -41.573483 -10.630369

v -29.396891 -35.355339 -19.642370

v -32.664074 -19.134163 -32.664070

v -29.396891 -27.778509 -29.396889

v -17.677664 -46.193981 -7.322322

v -23.096987 -41.573483 -15.432910

v 0.000000 -50.000000 0.000002

v -9.011988 -49.039265 -3.732883

v -25.000000 -35.355339 -24.999998

v -15.909476 -46.193981 -10.630368

v -19.642372 -41.573483 -19.642370

v 0.000000 -50.000000 0.000002

v -8.110574 -49.039265 -5.419309

v -13.529896 -46.193981 -13.529894

v 0.000000 -50.000000 0.000002

v -6.897476 -49.039265 -6.897473

v 0.000000 -50.000000 0.000002

v -5.419312 -49.039265 -8.110572

v -10.630370 -46.193981 -15.909474

v -15.432912 -41.573483 -23.096985

v 0.000000 -50.000000 0.000002

v -3.732887 -49.039265 -9.011985

v -7.322327 -46.193981 -17.677660

v -10.630374 -41.573483 -25.663996

v -19.642372 -35.355339 -29.396889

v -13.529902 -35.355339 -32.664070

v -23.096987 -27.778509 -34.567085

v -15.909481 -27.778509 -38.408886

v -25.663996 -19.134163 -38.408886

v -17.677668 -19.134163 -42.677670

v -27.244753 -9.754509 -40.774658

v -18.766512 -9.754509 -45.306370

v -27.778509 0.000004 -41.573479

v -19.134171 0.000004 -46.193974

v -27.244751 9.754517 -40.774654

v -18.766510 9.754517 -45.306366

v -25.663994 19.134171 -38.408882

v -17.677668 19.134171 -42.677666

v -23.096987 27.778511 -34.567085

v -15.909481 27.778511 -38.408886

v -19.642372 35.355339 -29.396889

v -13.529902 35.355339 -32.664070

v -15.432914 41.573479 -23.096989

v -10.630376 41.573479 -25.663998

v -10.630376 46.193970 -15.909482

v -7.322330 46.193970 -17.677670

v -3.732892 49.039261 -9.011996

v 0.000000 50.000000 0.000002

v 0.000000 50.000000 0.000002

v -1.903012 49.039261 -9.567084

v 0.000000 50.000000 0.000002

v -0.000000 49.039261 -9.754515

v -3.732892 46.193970 -18.766512

v -0.000001 46.193970 -19.134171

v -5.419319 41.573479 -27.244755

v -0.000001 41.573479 -27.778511

v -6.897484 35.355339 -34.675991

v -0.000002 35.355339 -35.355335

v -8.110584 27.778511 -40.774654

v -0.000002 27.778511 -41.573479

v -9.011997 19.134171 -45.306366

v -0.000002 19.134171 -46.193970

v -9.567085 9.754517 -48.096981

v -0.000002 9.754517 -49.039257

v -9.754517 0.000004 -49.039257

v -0.000002 0.000004 -49.999996

v -9.567086 -9.754509 -48.096985

v -0.000002 -9.754509 -49.039261

v -9.011998 -19.134163 -45.306366

v -0.000002 -19.134163 -46.193974

v -8.110584 -27.778509 -40.774654

v -0.000002 -27.778509 -41.573479

v -6.897484 -35.355339 -34.675991

v -0.000002 -35.355339 -35.355335

v -5.419318 -41.573483 -27.244751

v -0.000001 -41.573483 -27.778507

v -3.732890 -46.193981 -18.766502

v -0.000001 -46.193981 -19.134161

v -1.903009 -49.039265 -9.567072

v 0.000000 -50.000000 0.000002

v -0.000000 -49.039265 -9.754502

v 0.000000 -50.000000 0.000002



vt 0.968750 1.000000

vt 0.968750 0.937500

vt 1.000000 0.937500

vt 1.000000 0.875000

vt 0.968750 0.875000

vt 1.000000 0.812500

vt 0.937500 1.000000

vt 0.937500 0.937500

vt 0.968750 0.812500

vt 1.000000 0.750000

vt 0.937500 0.875000

vt 0.906250 1.000000

vt 0.906250 0.937500

vt 0.968750 0.750000

vt 1.000000 0.687500

vt 0.937500 0.812500

vt 0.906250 0.875000

vt 0.875000 1.000000

vt 0.875000 0.937500

vt 0.968750 0.687500

vt 1.000000 0.625000

vt 0.937500 0.750000

vt 0.906250 0.812500

vt 0.968750 0.625000

vt 1.000000 0.562500

vt 0.937500 0.687500

vt 0.968750 0.562500

vt 1.000000 0.500000

vt 0.937500 0.625000

vt 0.906250 0.750000

vt 0.906250 0.687500

vt 0.968750 0.500000

vt 1.000000 0.437988

vt 0.937500 0.562500

vt 0.968750 0.437988

vt 1.000000 0.375488

vt 0.937500 0.500000

vt 0.906250 0.625000

vt 0.906250 0.562500

vt 0.968750 0.375488

vt 1.000000 0.312988

vt 0.937500 0.437988

vt 0.968750 0.312988

vt 1.000000 0.250000

vt 0.937500 0.375488

vt 0.906250 0.500000

vt 0.906250 0.437988

vt 0.968750 0.250000

vt 1.000000 0.187500

vt 0.937500 0.312988

vt 0.968750 0.187500

vt 1.000000 0.125000

vt 0.937500 0.250000

vt 0.906250 0.375488

vt 0.906250 0.312988

vt 0.968750 0.125000

vt 1.000000 0.062500

vt 0.937500 0.187500

vt 0.968750 0.000000

vt 0.968750 0.062500

vt 0.906250 0.250000

vt 0.937500 0.125000

vt 0.906250 0.187500

vt 0.937500 0.000000

vt 0.937500 0.062500

vt 0.906250 0.125000

vt 0.906250 0.000000

vt 0.906250 0.062500

vt 0.875000 0.000000

vt 0.875000 0.062500

vt 0.875000 0.125000

vt 0.875000 0.187500

vt 0.843750 0.000000

vt 0.843750 0.062500

vt 0.843750 0.125000

vt 0.843750 0.187500

vt 0.875000 0.250000

vt 0.843750 0.250000

vt 0.875000 0.312988

vt 0.843750 0.312988

vt 0.875000 0.375488

vt 0.843750 0.375488

vt 0.875000 0.437988

vt 0.843750 0.437988

vt 0.875000 0.500000

vt 0.843750 0.500000

vt 0.875000 0.562500

vt 0.843750 0.562500

vt 0.875000 0.625000

vt 0.843750 0.625000

vt 0.875000 0.687500

vt 0.843750 0.687500

vt 0.875000 0.750000

vt 0.843750 0.750000

vt 0.875000 0.812500

vt 0.843750 0.812500

vt 0.875000 0.875000

vt 0.843750 0.875000

vt 0.843750 0.937500

vt 0.843750 1.000000

vt 0.812500 1.000000

vt 0.812500 0.937500

vt 0.812500 0.875000

vt 0.781250 1.000000

vt 0.781250 0.937500

vt 0.812500 0.812500

vt 0.781250 0.875000

vt 0.750000 1.000000

vt 0.750000 0.937500

vt 0.812500 0.750000

vt 0.781250 0.812500

vt 0.750000 0.875000

vt 0.718750 1.000000

vt 0.718750 0.937500

vt 0.812500 0.687500

vt 0.781250 0.750000

vt 0.750000 0.812500

vt 0.812500 0.625000

vt 0.781250 0.687500

vt 0.812500 0.562500

vt 0.781250 0.625000

vt 0.750000 0.750000

vt 0.750000 0.687500

vt 0.812500 0.500000

vt 0.781250 0.562500

vt 0.812500 0.437988

vt 0.781250 0.500000

vt 0.750000 0.625000

vt 0.750000 0.562500

vt 0.812500 0.375488

vt 0.781250 0.437988

vt 0.812500 0.312988

vt 0.781250 0.375488

vt 0.750000 0.500000

vt 0.750000 0.437988

vt 0.812500 0.250000

vt 0.781250 0.312988

vt 0.812500 0.187500

vt 0.781250 0.250000

vt 0.750000 0.375488

vt 0.750000 0.312988

vt 0.812500 0.125000

vt 0.781250 0.187500

vt 0.812500 0.000000

vt 0.812500 0.062500

vt 0.750000 0.250000

vt 0.781250 0.125000

vt 0.750000 0.187500

vt 0.781250 0.000000

vt 0.781250 0.062500

vt 0.750000 0.125000

vt 0.750000 0.000000

vt 0.750000 0.062500

vt 0.718750 0.000000

vt 0.718750 0.062500

vt 0.718750 0.125000

vt 0.718750 0.187500

vt 0.687500 0.000000

vt 0.687500 0.062500

vt 0.687500 0.125000

vt 0.687500 0.187500

vt 0.718750 0.250000

vt 0.687500 0.250000

vt 0.718750 0.312988

vt 0.687500 0.312988

vt 0.718750 0.375488

vt 0.687500 0.375488

vt 0.718750 0.437988

vt 0.687500 0.437988

vt 0.718750 0.500000

vt 0.687500 0.500000

vt 0.718750 0.562500

vt 0.687500 0.562500

vt 0.718750 0.625000

vt 0.687500 0.625000

vt 0.718750 0.687500

vt 0.687500 0.687500

vt 0.718750 0.750000

vt 0.687500 0.750000

vt 0.718750 0.812500

vt 0.687500 0.812500

vt 0.718750 0.875000

vt 0.687500 0.875000

vt 0.687500 0.937500

vt 0.687500 1.000000

vt 0.656250 1.000000

vt 0.656250 0.937500

vt 0.656250 0.875000

vt 0.625000 1.000000

vt 0.625000 0.937500

vt 0.656250 0.812500

vt 0.625000 0.875000

vt 0.593750 1.000000

vt 0.593750 0.937500

vt 0.656250 0.750000

vt 0.625000 0.812500

vt 0.593750 0.875000

vt 0.562500 1.000000

vt 0.562500 0.937500

vt 0.656250 0.687500

vt 0.625000 0.750000

vt 0.593750 0.812500

vt 0.656250 0.625000

vt 0.625000 0.687500

vt 0.656250 0.562500

vt 0.625000 0.625000

vt 0.593750 0.750000

vt 0.593750 0.687500

vt 0.656250 0.500000

vt 0.625000 0.562500

vt 0.656250 0.437988

vt 0.625000 0.500000

vt 0.593750 0.625000

vt 0.593750 0.562500

vt 0.656250 0.375488

vt 0.625000 0.437988

vt 0.656250 0.312988

vt 0.625000 0.375488

vt 0.593750 0.500000

vt 0.593750 0.437988

vt 0.656250 0.250000

vt 0.625000 0.312988

vt 0.656250 0.187500

vt 0.625000 0.250000

vt 0.593750 0.375488

vt 0.593750 0.312988

vt 0.656250 0.125000

vt 0.625000 0.187500

vt 0.656250 0.000000

vt 0.656250 0.062500

vt 0.593750 0.250000

vt 0.625000 0.125000

vt 0.593750 0.187500

vt 0.625000 0.000000

vt 0.625000 0.062500

vt 0.593750 0.125000

vt 0.593750 0.000000

vt 0.593750 0.062500

vt 0.562500 0.000000

vt 0.562500 0.062500

vt 0.562500 0.125000

vt 0.562500 0.187500

vt 0.531250 0.000000

vt 0.531250 0.062500

vt 0.531250 0.125000

vt 0.531250 0.187500

vt 0.562500 0.250000

vt 0.531250 0.250000

vt 0.562500 0.312988

vt 0.531250 0.312988

vt 0.562500 0.375488

vt 0.531250 0.375488

vt 0.562500 0.437988

vt 0.531250 0.437988

vt 0.562500 0.500000

vt 0.531250 0.500000

vt 0.562500 0.562500

vt 0.531250 0.562500

vt 0.562500 0.625000

vt 0.531250 0.625000

vt 0.562500 0.687500

vt 0.531250 0.687500

vt 0.562500 0.750000

vt 0.531250 0.750000

vt 0.562500 0.812500

vt 0.531250 0.812500

vt 0.562500 0.875000

vt 0.531250 0.875000

vt 0.531250 0.937500

vt 0.531250 1.000000

vt 0.500000 1.000000

vt 0.500000 0.937500

vt 0.500000 0.875000

vt 0.468750 1.000000

vt 0.468750 0.937500

vt 0.500000 0.812500

vt 0.468750 0.875000

vt 0.437500 1.000000

vt 0.437500 0.937500

vt 0.500000 0.750000

vt 0.468750 0.812500

vt 0.437500 0.875000

vt 0.406250 1.000000

vt 0.406250 0.937500

vt 0.500000 0.687500

vt 0.468750 0.750000

vt 0.437500 0.812500

vt 0.500000 0.625000

vt 0.468750 0.687500

vt 0.500000 0.562500

vt 0.468750 0.625000

vt 0.437500 0.750000

vt 0.437500 0.687500

vt 0.500000 0.500000

vt 0.468750 0.562500

vt 0.500000 0.437988

vt 0.468750 0.500000

vt 0.437500 0.625000

vt 0.437500 0.562500

vt 0.500000 0.375488

vt 0.468750 0.437988

vt 0.500000 0.312988

vt 0.468750 0.375488

vt 0.437500 0.500000

vt 0.437500 0.437988

vt 0.500000 0.250000

vt 0.468750 0.312988

vt 0.500000 0.187500

vt 0.468750 0.250000

vt 0.437500 0.375488

vt 0.437500 0.312988

vt 0.500000 0.125000

vt 0.468750 0.187500

vt 0.500000 0.000000

vt 0.500000 0.062500

vt 0.437500 0.250000

vt 0.468750 0.125000

vt 0.437500 0.187500

vt 0.468750 0.000000

vt 0.468750 0.062500

vt 0.437500 0.125000

vt 0.437500 0.000000

vt 0.437500 0.062500

vt 0.406250 0.000000

vt 0.406250 0.062500

vt 0.406250 0.125000

vt 0.406250 0.187500

vt 0.375000 0.000000

vt 0.375000 0.062500

vt 0.375000 0.125000

vt 0.375000 0.187500

vt 0.406250 0.250000

vt 0.375000 0.250000

vt 0.406250 0.312988

vt 0.375000 0.312988

vt 0.406250 0.375488

vt 0.375000 0.375488

vt 0.406250 0.437988

vt 0.375000 0.437988

vt 0.406250 0.500000

vt 0.375000 0.500000

vt 0.406250 0.562500

vt 0.375000 0.562500

vt 0.406250 0.625000

vt 0.375000 0.625000

vt 0.406250 0.687500

vt 0.375000 0.687500

vt 0.406250 0.750000

vt 0.375000 0.750000

vt 0.406250 0.812500

vt 0.375000 0.812500

vt 0.406250 0.875000

vt 0.375000 0.875000

vt 0.375000 0.937500

vt 0.375000 1.000000

vt 0.343506 1.000000

vt 0.343506 0.937500

vt 0.343506 0.875000

vt 0.312256 1.000000

vt 0.312256 0.937500

vt 0.343506 0.812500

vt 0.312256 0.875000

vt 0.281006 1.000000

vt 0.281006 0.937500

vt 0.343506 0.750000

vt 0.312256 0.812500

vt 0.281006 0.875000

vt 0.249878 1.000000

vt 0.249878 0.937500

vt 0.343506 0.687500

vt 0.312256 0.750000

vt 0.281006 0.812500

vt 0.343506 0.625000

vt 0.312256 0.687500

vt 0.343506 0.562500

vt 0.312256 0.625000

vt 0.281006 0.750000

vt 0.281006 0.687500

vt 0.343506 0.500000

vt 0.312256 0.562500

vt 0.343506 0.437988

vt 0.312256 0.500000

vt 0.281006 0.625000

vt 0.281006 0.562500

vt 0.343506 0.375488

vt 0.312256 0.437988

vt 0.343506 0.312988

vt 0.312256 0.375488

vt 0.281006 0.500000

vt 0.281006 0.437988

vt 0.343506 0.250000

vt 0.312256 0.312988

vt 0.343506 0.187500

vt 0.312256 0.250000

vt 0.281006 0.375488

vt 0.281006 0.312988

vt 0.343506 0.125000

vt 0.312256 0.187500

vt 0.343506 0.000000

vt 0.343506 0.062500

vt 0.281006 0.250000

vt 0.312256 0.125000

vt 0.281006 0.187500

vt 0.312256 0.000000

vt 0.312256 0.062500

vt 0.281006 0.125000

vt 0.281006 0.000000

vt 0.281006 0.062500

vt 0.249878 0.000000

vt 0.249878 0.062500

vt 0.249878 0.125000

vt 0.249878 0.187500

vt 0.218628 0.000000

vt 0.218628 0.062500

vt 0.218628 0.125000

vt 0.218628 0.187500

vt 0.249878 0.250000

vt 0.218628 0.250000

vt 0.249878 0.312988

vt 0.218628 0.312988

vt 0.249878 0.375488

vt 0.218628 0.375488

vt 0.249878 0.437988

vt 0.218628 0.437988

vt 0.249878 0.500000

vt 0.218628 0.500000

vt 0.249878 0.562500

vt 0.218628 0.562500

vt 0.249878 0.625000

vt 0.218628 0.625000

vt 0.249878 0.687500

vt 0.218628 0.687500

vt 0.249878 0.750000

vt 0.218628 0.750000

vt 0.249878 0.812500

vt 0.218628 0.812500

vt 0.249878 0.875000

vt 0.218628 0.875000

vt 0.218628 0.937500

vt 0.218628 1.000000

vt 0.187500 1.000000

vt 0.187500 0.937500

vt 0.187500 0.875000

vt 0.156250 1.000000

vt 0.156250 0.937500

vt 0.187500 0.812500

vt 0.156250 0.875000

vt 0.125000 1.000000

vt 0.125000 0.937500

vt 0.187500 0.750000

vt 0.156250 0.812500

vt 0.125000 0.875000

vt 0.093750 1.000000

vt 0.093750 0.937500

vt 0.187500 0.687500

vt 0.156250 0.750000

vt 0.125000 0.812500

vt 0.187500 0.625000

vt 0.156250 0.687500

vt 0.187500 0.562500

vt 0.156250 0.625000

vt 0.125000 0.750000

vt 0.125000 0.687500

vt 0.187500 0.500000

vt 0.156250 0.562500

vt 0.187500 0.437988

vt 0.156250 0.500000

vt 0.125000 0.625000

vt 0.125000 0.562500

vt 0.187500 0.375488

vt 0.156250 0.437988

vt 0.187500 0.312988

vt 0.156250 0.375488

vt 0.125000 0.500000

vt 0.125000 0.437988

vt 0.187500 0.250000

vt 0.156250 0.312988

vt 0.187500 0.187500

vt 0.156250 0.250000

vt 0.125000 0.375488

vt 0.125000 0.312988

vt 0.187500 0.125000

vt 0.156250 0.187500

vt 0.187500 0.000000

vt 0.187500 0.062500

vt 0.125000 0.250000

vt 0.156250 0.125000

vt 0.125000 0.187500

vt 0.156250 0.000000

vt 0.156250 0.062500

vt 0.125000 0.125000

vt 0.125000 0.000000

vt 0.125000 0.062500

vt 0.093750 0.000000

vt 0.093750 0.062500

vt 0.093750 0.125000

vt 0.093750 0.187500

vt 0.062500 0.000000

vt 0.062500 0.062500

vt 0.062500 0.125000

vt 0.062500 0.187500

vt 0.093750 0.250000

vt 0.062500 0.250000

vt 0.093750 0.312988

vt 0.062500 0.312988

vt 0.093750 0.375488

vt 0.062500 0.375488

vt 0.093750 0.437988

vt 0.062500 0.437988

vt 0.093750 0.500000

vt 0.062500 0.500000

vt 0.093750 0.562500

vt 0.062500 0.562500

vt 0.093750 0.625000

vt 0.062500 0.625000

vt 0.093750 0.687500

vt 0.062500 0.687500

vt 0.093750 0.750000

vt 0.062500 0.750000

vt 0.093750 0.812500

vt 0.062500 0.812500

vt 0.093750 0.875000

vt 0.062500 0.875000

vt 0.062500 0.937500

vt 0.062500 1.000000

vt 0.031250 1.000000

vt 0.031250 0.937500

vt 0.000000 1.000000

vt 0.000000 0.937500

vt 0.031250 0.875000

vt 0.000000 0.875000

vt 0.031250 0.812500

vt 0.000000 0.812500

vt 0.031250 0.750000

vt 0.000000 0.750000

vt 0.031250 0.687500

vt 0.000000 0.687500

vt 0.031250 0.625000

vt 0.000000 0.625000

vt 0.031250 0.562500

vt 0.000000 0.562500

vt 0.031250 0.500000

vt 0.000000 0.500000

vt 0.031250 0.437988

vt 0.000000 0.437988

vt 0.031250 0.375488

vt 0.000000 0.375488

vt 0.031250 0.312988

vt 0.000000 0.312988

vt 0.031250 0.250000

vt 0.000000 0.250000

vt 0.031250 0.187500

vt 0.000000 0.187500

vt 0.031250 0.125000

vt 0.000000 0.125000

vt 0.031250 0.062500

vt 0.031250 0.000000

vt 0.000000 0.062500

vt 0.000000 0.000000



vn -0.003922 0.992157 -0.003922

vn 0.027451 0.968628 -0.215686

vn -0.011765 0.968628 -0.215686

vn -0.003922 0.913726 -0.388235

vn 0.066667 0.921569 -0.388235

vn -0.011765 0.827451 -0.568627

vn -0.003922 0.992157 -0.003922

vn 0.066667 0.968628 -0.207843

vn 0.090196 0.819608 -0.552941

vn -0.011765 0.701961 -0.717647

vn 0.137255 0.921569 -0.364706

vn -0.003922 0.992157 -0.003922

vn 0.105882 0.968628 -0.184314

vn 0.129412 0.701961 -0.701961

vn -0.003922 0.545098 -0.835294

vn 0.207843 0.827451 -0.529412

vn 0.207843 0.921569 -0.333333

vn -0.003922 0.992157 -0.003922

vn 0.137255 0.968628 -0.160784

vn 0.145098 0.545098 -0.819608

vn -0.003922 0.372549 -0.929412

vn 0.262745 0.701961 -0.662745

vn 0.301961 0.827451 -0.474510

vn 0.168628 0.372549 -0.913725

vn -0.003922 0.184314 -0.984314

vn 0.309804 0.552941 -0.780392

vn 0.176471 0.184314 -0.968627

vn -0.003922 -0.003922 -1.000000

vn 0.341177 0.372549 -0.858824

vn 0.388235 0.701961 -0.600000

vn 0.458824 0.552941 -0.701961

vn 0.184314 -0.003922 -0.984314

vn -0.003922 -0.200000 -0.984314

vn 0.364706 0.184314 -0.913725

vn 0.176471 -0.200000 -0.968627

vn -0.003922 -0.388235 -0.929412

vn 0.372549 -0.003922 -0.929412

vn 0.505883 0.380392 -0.780392

vn 0.537255 0.192157 -0.827451

vn 0.168628 -0.388235 -0.905882

vn -0.003922 -0.560784 -0.835294

vn 0.364706 -0.200000 -0.913725

vn 0.152941 -0.560784 -0.819608

vn -0.003922 -0.709804 -0.709804

vn 0.341177 -0.388235 -0.858824

vn 0.545098 -0.003922 -0.835294

vn 0.537255 -0.200000 -0.819608

vn 0.129412 -0.709804 -0.694118

vn -0.003922 -0.835294 -0.560784

vn 0.309804 -0.560784 -0.772549

vn 0.098039 -0.835294 -0.545098

vn -0.003922 -0.929412 -0.388235

vn 0.262745 -0.709804 -0.654902

vn 0.505883 -0.388235 -0.772549

vn 0.450980 -0.560784 -0.694118

vn 0.066667 -0.929412 -0.380392

vn -0.003922 -0.984314 -0.215686

vn 0.200000 -0.835294 -0.513725

vn -0.003922 -1.000000 -0.003922

vn 0.035294 -0.976471 -0.215686

vn 0.380392 -0.709804 -0.592157

vn 0.137255 -0.929412 -0.356863

vn 0.301961 -0.835294 -0.466667

vn -0.003922 -1.000000 -0.003922

vn 0.074510 -0.984314 -0.200000

vn 0.200000 -0.929412 -0.317647

vn -0.003922 -1.000000 -0.003922

vn 0.113726 -0.984314 -0.176471

vn -0.003922 -1.000000 -0.003922

vn 0.145098 -0.984314 -0.152941

vn 0.262745 -0.929412 -0.270588

vn 0.380392 -0.835294 -0.396078

vn -0.003922 -1.000000 -0.003922

vn 0.168628 -0.984314 -0.121569

vn 0.309804 -0.929412 -0.215686

vn 0.450980 -0.835294 -0.309804

vn 0.490196 -0.709804 -0.505882

vn 0.576471 -0.709804 -0.396078

vn 0.576471 -0.560784 -0.592157

vn 0.678432 -0.560784 -0.466667

vn 0.647059 -0.396078 -0.662745

vn 0.764706 -0.396078 -0.521569

vn 0.686275 -0.207843 -0.701961

vn 0.811765 -0.207843 -0.552941

vn 0.701961 -0.011765 -0.717647

vn 0.827451 -0.011765 -0.568627

vn 0.686275 0.192157 -0.701961

vn 0.803922 0.184314 -0.552941

vn 0.647059 0.380392 -0.662745

vn 0.756863 0.372549 -0.521569

vn 0.584314 0.552941 -0.600000

vn 0.686275 0.552941 -0.474510

vn 0.498039 0.701961 -0.513725

vn 0.584314 0.701961 -0.403922

vn 0.388235 0.827451 -0.403922

vn 0.458824 0.827451 -0.325490

vn 0.262745 0.921569 -0.286274

vn 0.309804 0.921569 -0.223529

vn 0.168628 0.976471 -0.137255

vn -0.003922 0.992157 -0.003922

vn -0.003922 0.992157 -0.003922

vn 0.192157 0.976471 -0.098039

vn 0.349020 0.921569 -0.160784

vn -0.003922 0.992157 -0.003922

vn 0.207843 0.976471 -0.058823

vn 0.505883 0.827451 -0.223529

vn 0.372549 0.921569 -0.090196

vn -0.003922 0.992157 -0.003922

vn 0.207843 0.976471 -0.019608

vn 0.647059 0.701961 -0.286274

vn 0.537255 0.827451 -0.121569

vn 0.380392 0.921569 -0.011765

vn -0.003922 0.992157 -0.003922

vn 0.207843 0.976471 0.035294

vn 0.764706 0.552941 -0.333333

vn 0.686275 0.701961 -0.152941

vn 0.552941 0.827451 -0.011765

vn 0.850981 0.380392 -0.364706

vn 0.811765 0.552941 -0.176471

vn 0.898039 0.184314 -0.380392

vn 0.898039 0.380392 -0.192157

vn 0.701961 0.701961 -0.011765

vn 0.827451 0.552941 -0.011765

vn 0.913726 -0.003922 -0.388235

vn 0.960784 0.192157 -0.200000

vn 0.898039 -0.200000 -0.380392

vn 0.976471 -0.011765 -0.207843

vn 0.921569 0.380392 -0.011765

vn 0.976471 0.192157 -0.011765

vn 0.843137 -0.388235 -0.356863

vn 0.952941 -0.200000 -0.192157

vn 0.756863 -0.560784 -0.317647

vn 0.898039 -0.388235 -0.184314

vn 0.992157 -0.003922 -0.003922

vn 0.976471 -0.207843 -0.011765

vn 0.647059 -0.717647 -0.278431

vn 0.811765 -0.568627 -0.168627

vn 0.505883 -0.835294 -0.215686

vn 0.686275 -0.717647 -0.145098

vn 0.913726 -0.388235 -0.003922

vn 0.827451 -0.568627 -0.011765

vn 0.341177 -0.929412 -0.145098

vn 0.537255 -0.835294 -0.105882

vn -0.003922 -1.000000 -0.003922

vn 0.192157 -0.984314 -0.082353

vn 0.701961 -0.717647 -0.011765

vn 0.364706 -0.929412 -0.074510

vn 0.545098 -0.835294 -0.003922

vn -0.003922 -1.000000 -0.003922

vn 0.200000 -0.984314 -0.043137

vn 0.372549 -0.929412 -0.003922

vn -0.003922 -1.000000 -0.003922

vn 0.200000 -0.984314 -0.003922

vn -0.003922 -1.000000 -0.003922

vn 0.200000 -0.984314 0.035294

vn 0.364706 -0.929412 0.066667

vn 0.537255 -0.843137 0.105882

vn -0.003922 -1.000000 -0.003922

vn 0.184314 -0.984314 0.074510

vn 0.341177 -0.929412 0.137255

vn 0.505883 -0.843137 0.207843

vn 0.686275 -0.717647 0.137255

vn 0.647059 -0.717647 0.270588

vn 0.811765 -0.568627 0.160784

vn 0.756863 -0.560784 0.309804

vn 0.898039 -0.396078 0.176471

vn 0.850981 -0.396078 0.349020

vn 0.960784 -0.207843 0.184314

vn 0.905882 -0.207843 0.372549

vn 0.976471 -0.011765 0.192157

vn 0.921569 -0.011765 0.380392

vn 0.960784 0.192157 0.184314

vn 0.905882 0.192157 0.372549

vn 0.905882 0.380392 0.176471

vn 0.850981 0.380392 0.349020

vn 0.811765 0.552941 0.152941

vn 0.764706 0.552941 0.309804

vn 0.686275 0.701961 0.129412

vn 0.647059 0.701961 0.262745

vn 0.545098 0.827451 0.098039

vn 0.513726 0.827451 0.207843

vn 0.372549 0.921569 0.066667

vn 0.349020 0.921569 0.137255

vn 0.200000 0.976471 0.074510

vn -0.003922 0.992157 -0.003922

vn -0.003922 0.992157 -0.003922

vn 0.176471 0.976471 0.113726

vn 0.317647 0.921569 0.207843

vn -0.003922 0.992157 -0.003922

vn 0.152941 0.976471 0.145098

vn 0.458824 0.827451 0.301961

vn 0.270588 0.921569 0.262745

vn -0.003922 0.992157 -0.003922

vn 0.121569 0.976471 0.168628

vn 0.584314 0.701961 0.388235

vn 0.388235 0.827451 0.388235

vn 0.207843 0.921569 0.309804

vn -0.003922 0.992157 -0.003922

vn 0.082353 0.976471 0.192157

vn 0.686275 0.552941 0.458824

vn 0.498039 0.701961 0.498039

vn 0.309804 0.827451 0.458824

vn 0.764706 0.380392 0.505883

vn 0.584314 0.552941 0.584314

vn 0.811765 0.192157 0.537255

vn 0.647059 0.380392 0.647059

vn 0.388235 0.701961 0.584314

vn 0.458824 0.552941 0.686275

vn 0.827451 -0.011765 0.552941

vn 0.686275 0.192157 0.686275

vn 0.811765 -0.207843 0.545098

vn 0.701961 -0.011765 0.701961

vn 0.513726 0.380392 0.764706

vn 0.545098 0.192157 0.811765

vn 0.764706 -0.396078 0.513726

vn 0.686275 -0.207843 0.686275

vn 0.686275 -0.568627 0.458824

vn 0.647059 -0.396078 0.647059

vn 0.552941 -0.011765 0.827451

vn 0.537255 -0.207843 0.811765

vn 0.584314 -0.717647 0.388235

vn 0.584314 -0.568627 0.584314

vn 0.450980 -0.835294 0.301961

vn 0.498039 -0.717647 0.498039

vn 0.505883 -0.396078 0.764706

vn 0.458824 -0.568627 0.686275

vn 0.301961 -0.929412 0.200000

vn 0.388235 -0.843137 0.388235

vn -0.003922 -1.000000 -0.003922

vn 0.160784 -0.984314 0.113726

vn 0.388235 -0.717647 0.584314

vn 0.254902 -0.929412 0.262745

vn 0.301961 -0.843137 0.458824

vn -0.003922 -1.000000 -0.003922

vn 0.137255 -0.984314 0.145098

vn 0.200000 -0.929412 0.309804

vn -0.003922 -1.000000 -0.003922

vn 0.105882 -0.984314 0.168628

vn -0.003922 -1.000000 -0.003922

vn 0.066667 -0.984314 0.192157

vn 0.129412 -0.929412 0.341177

vn 0.200000 -0.835294 0.505883

vn -0.003922 -1.000000 -0.003922

vn 0.027451 -0.984314 0.200000

vn 0.058824 -0.929412 0.364706

vn 0.090196 -0.835294 0.537255

vn 0.262745 -0.717647 0.647059

vn 0.129412 -0.717647 0.686275

vn 0.309804 -0.568627 0.764706

vn 0.152941 -0.568627 0.811765

vn 0.349020 -0.396078 0.850981

vn 0.168628 -0.388235 0.898039

vn 0.372549 -0.207843 0.905882

vn 0.184314 -0.207843 0.960784

vn 0.380392 -0.011765 0.921569

vn 0.192157 -0.011765 0.976471

vn 0.372549 0.192157 0.905882

vn 0.184314 0.192157 0.960784

vn 0.349020 0.380392 0.850981

vn 0.176471 0.380392 0.905882

vn 0.317647 0.552941 0.764706

vn 0.160784 0.552941 0.811765

vn 0.270588 0.701961 0.647059

vn 0.137255 0.701961 0.686275

vn 0.207843 0.827451 0.505883

vn 0.105882 0.827451 0.537255

vn 0.145098 0.921569 0.349020

vn 0.074510 0.921569 0.372549

vn 0.043137 0.976471 0.207843

vn -0.003922 0.992157 -0.003922

vn -0.003922 0.992157 -0.003922

vn 0.003922 0.976471 0.207843

vn -0.011765 0.921569 0.380392

vn -0.003922 0.992157 -0.003922

vn -0.050980 0.976471 0.207843

vn -0.011765 0.827451 0.552941

vn -0.082353 0.921569 0.372549

vn -0.003922 0.992157 -0.003922

vn -0.082353 0.968628 0.192157

vn -0.011765 0.701961 0.701961

vn -0.113725 0.827451 0.545098

vn -0.152941 0.921569 0.349020

vn -0.003922 0.992157 -0.003922

vn -0.129412 0.976471 0.176471

vn -0.011765 0.552941 0.827451

vn -0.145098 0.701961 0.686275

vn -0.223529 0.827451 0.513726

vn -0.011765 0.380392 0.921569

vn -0.168627 0.552941 0.811765

vn -0.011765 0.192157 0.976471

vn -0.192157 0.380392 0.905882

vn -0.278431 0.701961 0.647059

vn -0.325490 0.552941 0.764706

vn -0.003922 -0.003922 0.992157

vn -0.200000 0.192157 0.960784

vn -0.011765 -0.207843 0.976471

vn -0.207843 -0.011765 0.976471

vn -0.364706 0.380392 0.850981

vn -0.380392 0.184314 0.898039

vn -0.003922 -0.388235 0.913726

vn -0.192157 -0.200000 0.952941

vn -0.011765 -0.568627 0.827451

vn -0.192157 -0.396078 0.898039

vn -0.388235 -0.003922 0.913726

vn -0.380392 -0.200000 0.898039

vn -0.011765 -0.717647 0.701961

vn -0.168627 -0.560784 0.803922

vn -0.003922 -0.835294 0.545098

vn -0.152941 -0.717647 0.686275

vn -0.356863 -0.388235 0.843137

vn -0.325490 -0.560784 0.756863

vn -0.003922 -0.929412 0.372549

vn -0.121569 -0.843137 0.537255

vn -0.003922 -1.000000 -0.003922

vn -0.011765 -0.984314 0.200000

vn -0.278431 -0.709804 0.639216

vn -0.082353 -0.929412 0.364706

vn -0.215686 -0.835294 0.498039

vn -0.003922 -1.000000 -0.003922

vn -0.050980 -0.984314 0.200000

vn -0.152941 -0.929412 0.341177

vn -0.003922 -1.000000 -0.003922

vn -0.090196 -0.984314 0.184314

vn -0.003922 -1.000000 -0.003922

vn -0.129412 -0.984314 0.160784

vn -0.215686 -0.929412 0.301961

vn -0.317647 -0.835294 0.450980

vn -0.003922 -1.000000 -0.003922

vn -0.160784 -0.984314 0.137255

vn -0.278431 -0.929412 0.254902

vn -0.396078 -0.835294 0.380392

vn -0.396078 -0.709804 0.576471

vn -0.505882 -0.709804 0.490196

vn -0.466667 -0.560784 0.678432

vn -0.592157 -0.560784 0.576471

vn -0.521569 -0.388235 0.756863

vn -0.662745 -0.396078 0.647059

vn -0.552941 -0.200000 0.803922

vn -0.701961 -0.207843 0.686275

vn -0.568627 -0.011765 0.827451

vn -0.717647 -0.011765 0.701961

vn -0.552941 0.192157 0.811765

vn -0.701961 0.192157 0.686275

vn -0.521569 0.380392 0.764706

vn -0.662745 0.380392 0.647059

vn -0.474510 0.552941 0.686275

vn -0.600000 0.552941 0.584314

vn -0.403922 0.701961 0.584314

vn -0.513725 0.701961 0.498039

vn -0.317647 0.827451 0.458824

vn -0.403922 0.827451 0.388235

vn -0.223529 0.921569 0.317647

vn -0.278431 0.921569 0.270588

vn -0.152941 0.968628 0.145098

vn -0.003922 0.992157 -0.003922

vn -0.003922 0.992157 -0.003922

vn -0.184314 0.976471 0.121569

vn -0.325490 0.921569 0.207843

vn -0.003922 0.992157 -0.003922

vn -0.200000 0.968628 0.074510

vn -0.474510 0.827451 0.309804

vn -0.364706 0.921569 0.145098

vn -0.003922 0.992157 -0.003922

vn -0.215686 0.968628 0.035294

vn -0.600000 0.701961 0.388235

vn -0.521569 0.827451 0.207843

vn -0.388235 0.921569 0.074510

vn -0.003922 0.992157 -0.003922

vn -0.215686 0.968628 -0.003922

vn -0.701961 0.552941 0.458824

vn -0.662745 0.701961 0.270588

vn -0.552941 0.827451 0.105882

vn -0.772549 0.372549 0.505883

vn -0.772549 0.545098 0.309804

vn -0.819608 0.184314 0.537255

vn -0.858824 0.372549 0.341177

vn -0.701961 0.701961 0.137255

vn -0.819608 0.545098 0.152941

vn -0.835294 -0.003922 0.545098

vn -0.913725 0.184314 0.364706

vn -0.819608 -0.200000 0.529412

vn -0.929412 -0.003922 0.372549

vn -0.913725 0.380392 0.176471

vn -0.968627 0.184314 0.176471

vn -0.772549 -0.388235 0.498039

vn -0.913725 -0.200000 0.364706

vn -0.694118 -0.560784 0.450980

vn -0.858824 -0.388235 0.341177

vn -0.984314 -0.003922 0.184314

vn -0.968627 -0.200000 0.176471

vn -0.592157 -0.709804 0.380392

vn -0.772549 -0.560784 0.301961

vn -0.466667 -0.835294 0.294118

vn -0.654902 -0.709804 0.254902

vn -0.913725 -0.388235 0.168628

vn -0.819608 -0.560784 0.145098

vn -0.325490 -0.929412 0.200000

vn -0.521569 -0.835294 0.200000

vn -0.003922 -1.000000 -0.003922

vn -0.184314 -0.984314 0.105882

vn -0.694118 -0.709804 0.121569

vn -0.356863 -0.929412 0.129412

vn -0.552941 -0.835294 0.090196

vn -0.003922 -1.000000 -0.003922

vn -0.207843 -0.976471 0.066667

vn -0.380392 -0.929412 0.058824

vn -0.003922 -1.000000 -0.003922

vn -0.215686 -0.976471 0.027451

vn -0.003922 -1.000000 -0.003922

vn -0.215686 -0.984314 -0.011765

vn -0.388235 -0.929412 -0.003922

vn -0.560784 -0.835294 -0.003922

vn -0.003922 -1.000000 -0.003922

vn -0.215686 -0.976471 -0.050980

vn -0.380392 -0.929412 -0.082353

vn -0.545098 -0.835294 -0.113725

vn -0.709804 -0.709804 -0.003922

vn -0.694118 -0.709804 -0.145098

vn -0.835294 -0.560784 -0.003922

vn -0.819608 -0.560784 -0.168627

vn -0.929412 -0.388235 -0.003922

vn -0.905882 -0.388235 -0.184314

vn -0.984314 -0.200000 -0.003922

vn -0.968627 -0.200000 -0.192157

vn -1.000000 -0.003922 -0.003922

vn -0.984314 -0.003922 -0.200000

vn -0.984314 0.184314 -0.003922

vn -0.968627 0.184314 -0.192157

vn -0.929412 0.372549 -0.003922

vn -0.913725 0.372549 -0.184314

vn -0.835294 0.545098 -0.003922

vn -0.819608 0.545098 -0.160784

vn -0.717647 0.701961 -0.011765

vn -0.701961 0.701961 -0.145098

vn -0.568627 0.827451 -0.011765

vn -0.552941 0.819608 -0.105882

vn -0.388235 0.913726 -0.003922

vn -0.388235 0.921569 -0.082353

vn -0.215686 0.968628 -0.043137

vn -0.003922 0.992157 -0.003922

vn -0.003922 0.992157 -0.003922

vn -0.207843 0.968628 -0.082353

vn -0.364706 0.921569 -0.152941

vn -0.003922 0.992157 -0.003922

vn -0.184314 0.968628 -0.121569

vn -0.521569 0.819608 -0.215686

vn -0.325490 0.913726 -0.215686

vn -0.003922 0.992157 -0.003922

vn -0.160784 0.968628 -0.152941

vn -0.662745 0.701961 -0.278431

vn -0.474510 0.827451 -0.317647

vn -0.278431 0.913726 -0.270588

vn -0.003922 0.992157 -0.003922

vn -0.129412 0.968628 -0.176471

vn -0.772549 0.545098 -0.317647

vn -0.592157 0.694118 -0.396078

vn -0.403922 0.827451 -0.403922

vn -0.858824 0.372549 -0.356863

vn -0.694118 0.545098 -0.466667

vn -0.913725 0.184314 -0.380392

vn -0.772549 0.372549 -0.513725

vn -0.505882 0.694118 -0.505882

vn -0.592157 0.545098 -0.592157

vn -0.929412 -0.003922 -0.388235

vn -0.819608 0.184314 -0.545098

vn -0.905882 -0.200000 -0.380392

vn -0.835294 -0.003922 -0.560784

vn -0.654902 0.372549 -0.654902

vn -0.694118 0.184314 -0.694118

vn -0.858824 -0.388235 -0.356863

vn -0.819608 -0.200000 -0.552941

vn -0.772549 -0.560784 -0.325490

vn -0.772549 -0.388235 -0.521569

vn -0.709804 -0.003922 -0.709804

vn -0.694118 -0.200000 -0.694118

vn -0.654902 -0.709804 -0.278431

vn -0.694118 -0.560784 -0.466667

vn -0.513725 -0.835294 -0.215686

vn -0.592157 -0.709804 -0.396078

vn -0.654902 -0.388235 -0.654902

vn -0.592157 -0.560784 -0.592157

vn -0.356863 -0.929412 -0.152941

vn -0.466667 -0.835294 -0.317647

vn -0.003922 -1.000000 -0.003922

vn -0.200000 -0.976471 -0.090196

vn -0.505882 -0.709804 -0.505882

vn -0.317647 -0.929412 -0.215686

vn -0.396078 -0.835294 -0.396078

vn -0.003922 -1.000000 -0.003922

vn -0.176471 -0.976471 -0.129412

vn -0.270588 -0.929412 -0.278431

vn -0.003922 -1.000000 -0.003922

vn -0.152941 -0.976471 -0.160784

vn -0.003922 -1.000000 -0.003922

vn -0.121569 -0.976471 -0.184314

vn -0.215686 -0.929412 -0.325490

vn -0.309804 -0.835294 -0.466667

vn -0.003922 -1.000000 -0.003922

vn -0.082353 -0.976471 -0.207843

vn -0.145098 -0.929412 -0.356863

vn -0.215686 -0.835294 -0.521569

vn -0.396078 -0.709804 -0.592157

vn -0.270588 -0.709804 -0.654902

vn -0.466667 -0.560784 -0.694118

vn -0.317647 -0.560784 -0.772549

vn -0.513725 -0.388235 -0.772549

vn -0.356863 -0.388235 -0.858824

vn -0.545098 -0.200000 -0.819608

vn -0.380392 -0.200000 -0.905882

vn -0.560784 -0.003922 -0.835294

vn -0.388235 -0.003922 -0.929412

vn -0.552941 0.184314 -0.819608

vn -0.380392 0.184314 -0.913725

vn -0.521569 0.372549 -0.772549

vn -0.356863 0.372549 -0.858824

vn -0.466667 0.545098 -0.694118

vn -0.325490 0.545098 -0.772549

vn -0.396078 0.694118 -0.592157

vn -0.286274 0.701961 -0.662745

vn -0.317647 0.819608 -0.466667

vn -0.223529 0.827451 -0.521569

vn -0.223529 0.921569 -0.325490

vn -0.152941 0.913726 -0.356863

vn -0.090196 0.968628 -0.200000

vn -0.003922 0.992157 -0.003922

vn -0.003922 0.992157 -0.003922

vn -0.050980 0.968628 -0.215686

vn -0.003922 0.992157 -0.003922

vn -0.011765 0.968628 -0.215686

vn -0.082353 0.913726 -0.380392

vn -0.003922 0.913726 -0.388235

vn -0.121569 0.827451 -0.552941

vn -0.011765 0.827451 -0.568627

vn -0.152941 0.701961 -0.701961

vn -0.011765 0.701961 -0.717647

vn -0.168627 0.545098 -0.819608

vn -0.003922 0.545098 -0.835294

vn -0.192157 0.380392 -0.913725

vn -0.003922 0.372549 -0.929412

vn -0.192157 0.184314 -0.968627

vn -0.003922 0.184314 -0.984314

vn -0.200000 -0.003922 -0.984314

vn -0.003922 -0.003922 -1.000000

vn -0.192157 -0.200000 -0.968627

vn -0.003922 -0.200000 -0.984314

vn -0.184314 -0.388235 -0.905882

vn -0.003922 -0.388235 -0.929412

vn -0.160784 -0.560784 -0.819608

vn -0.003922 -0.560784 -0.835294

vn -0.137255 -0.709804 -0.694118

vn -0.003922 -0.709804 -0.709804

vn -0.105882 -0.835294 -0.552941

vn -0.003922 -0.835294 -0.560784

vn -0.074510 -0.929412 -0.380392

vn -0.003922 -0.929412 -0.388235

vn -0.043137 -0.976471 -0.215686

vn -0.003922 -1.000000 -0.003922

vn -0.003922 -0.984314 -0.215686

vn -0.003922 -1.000000 -0.003922

f 1/1/1 2/2/2 3/3/3

f 2/2/2 4/4/4 3/3/3

f 2/2/2 5/5/5 4/4/4

f 5/5/5 6/6/6 4/4/4

f 7/7/7 8/8/8 2/2/2

f 8/8/8 5/5/5 2/2/2

f 5/5/5 9/9/9 6/6/6

f 9/9/9 10/10/10 6/6/6

f 8/8/8 11/11/11 5/5/5

f 11/11/11 9/9/9 5/5/5

f 12/12/12 13/13/13 8/8/8

f 13/13/13 11/11/11 8/8/8

f 9/9/9 14/14/14 10/10/10

f 14/14/14 15/15/15 10/10/10

f 11/11/11 16/16/16 9/9/9

f 16/16/16 14/14/14 9/9/9

f 13/13/13 17/17/17 11/11/11

f 17/17/17 16/16/16 11/11/11

f 18/18/18 19/19/19 13/13/13

f 19/19/19 17/17/17 13/13/13

f 14/14/14 20/20/20 15/15/15

f 20/20/20 21/21/21 15/15/15

f 16/16/16 22/22/22 14/14/14

f 22/22/22 20/20/20 14/14/14

f 17/17/17 23/23/23 16/16/16

f 23/23/23 22/22/22 16/16/16

f 20/20/20 24/24/24 21/21/21

f 24/24/24 25/25/25 21/21/21

f 22/22/22 26/26/26 20/20/20

f 26/26/26 24/24/24 20/20/20

f 24/24/24 27/27/27 25/25/25

f 27/27/27 28/28/28 25/25/25

f 26/26/26 29/29/29 24/24/24

f 29/29/29 27/27/27 24/24/24

f 30/30/30 26/26/26 22/22/22

f 23/23/23 30/30/30 22/22/22

f 31/31/31 29/29/29 26/26/26

f 30/30/30 31/31/31 26/26/26

f 27/27/27 32/32/32 28/28/28

f 32/32/32 33/33/33 28/28/28

f 29/29/29 34/34/34 27/27/27

f 34/34/34 32/32/32 27/27/27

f 32/32/32 35/35/35 33/33/33

f 35/35/35 36/36/36 33/33/33

f 34/34/34 37/37/37 32/32/32

f 37/37/37 35/35/35 32/32/32

f 38/38/38 34/34/34 29/29/29

f 31/31/31 38/38/38 29/29/29

f 39/39/39 37/37/37 34/34/34

f 38/38/38 39/39/39 34/34/34

f 35/35/35 40/40/40 36/36/36

f 40/40/40 41/41/41 36/36/36

f 37/37/37 42/42/42 35/35/35

f 42/42/42 40/40/40 35/35/35

f 40/40/40 43/43/43 41/41/41

f 43/43/43 44/44/44 41/41/41

f 42/42/42 45/45/45 40/40/40

f 45/45/45 43/43/43 40/40/40

f 46/46/46 42/42/42 37/37/37

f 39/39/39 46/46/46 37/37/37

f 47/47/47 45/45/45 42/42/42

f 46/46/46 47/47/47 42/42/42

f 43/43/43 48/48/48 44/44/44

f 48/48/48 49/49/49 44/44/44

f 45/45/45 50/50/50 43/43/43

f 50/50/50 48/48/48 43/43/43

f 48/48/48 51/51/51 49/49/49

f 51/51/51 52/52/52 49/49/49

f 50/50/50 53/53/53 48/48/48

f 53/53/53 51/51/51 48/48/48

f 54/54/54 50/50/50 45/45/45

f 47/47/47 54/54/54 45/45/45

f 55/55/55 53/53/53 50/50/50

f 54/54/54 55/55/55 50/50/50

f 51/51/51 56/56/56 52/52/52

f 56/56/56 57/57/57 52/52/52

f 53/53/53 58/58/58 51/51/51

f 58/58/58 56/56/56 51/51/51

f 59/59/59 57/57/57 60/60/60

f 56/56/56 60/60/60 57/57/57

f 61/61/61 58/58/58 53/53/53

f 55/55/55 61/61/61 53/53/53

f 58/58/58 62/62/62 56/56/56

f 62/62/62 60/60/60 56/56/56

f 61/61/61 63/63/63 58/58/58

f 63/63/63 62/62/62 58/58/58

f 64/64/64 60/60/60 65/65/65

f 62/62/62 65/65/65 60/60/60

f 63/63/63 66/66/66 62/62/62

f 66/66/66 65/65/65 62/62/62

f 67/67/67 65/65/65 68/68/68

f 66/66/66 68/68/68 65/65/65

f 69/69/69 68/68/68 70/70/70

f 71/71/71 68/68/68 66/66/66

f 71/71/71 70/70/70 68/68/68

f 72/72/72 66/66/66 63/63/63

f 72/72/72 71/71/71 66/66/66

f 73/73/73 70/70/70 74/74/74

f 75/75/75 70/70/70 71/71/71

f 75/75/75 74/74/74 70/70/70

f 76/76/76 71/71/71 72/72/72

f 76/76/76 75/75/75 71/71/71

f 77/77/77 72/72/72 63/63/63

f 77/77/77 63/63/63 61/61/61

f 78/78/78 76/76/76 72/72/72

f 78/78/78 72/72/72 77/77/77

f 79/79/79 77/77/77 61/61/61

f 79/79/79 61/61/61 55/55/55

f 80/80/80 78/78/78 77/77/77

f 80/80/80 77/77/77 79/79/79

f 81/81/81 79/79/79 55/55/55

f 81/81/81 55/55/55 54/54/54

f 82/82/82 80/80/80 79/79/79

f 82/82/82 79/79/79 81/81/81

f 83/83/83 81/81/81 54/54/54

f 83/83/83 54/54/54 47/47/47

f 84/84/84 82/82/82 81/81/81

f 84/84/84 81/81/81 83/83/83

f 85/85/85 83/83/83 47/47/47

f 85/85/85 47/47/47 46/46/46

f 86/86/86 84/84/84 83/83/83

f 86/86/86 83/83/83 85/85/85

f 87/87/87 85/85/85 46/46/46

f 87/87/87 46/46/46 39/39/39

f 88/88/88 86/86/86 85/85/85

f 88/88/88 85/85/85 87/87/87

f 89/89/89 87/87/87 39/39/39

f 89/89/89 39/39/39 38/38/38

f 90/90/90 88/88/88 87/87/87

f 90/90/90 87/87/87 89/89/89

f 91/91/91 89/89/89 38/38/38

f 91/91/91 38/38/38 31/31/31

f 92/92/92 90/90/90 89/89/89

f 92/92/92 89/89/89 91/91/91

f 93/93/93 91/91/91 31/31/31

f 93/93/93 31/31/31 30/30/30

f 94/94/94 92/92/92 91/91/91

f 94/94/94 91/91/91 93/93/93

f 95/95/95 93/93/93 30/30/30

f 95/95/95 30/30/30 23/23/23

f 96/96/96 94/94/94 93/93/93

f 96/96/96 93/93/93 95/95/95

f 97/97/97 95/95/95 23/23/23

f 97/97/97 23/23/23 17/17/17

f 19/19/19 97/97/97 17/17/17

f 98/98/98 95/95/95 97/97/97

f 98/98/98 96/96/96 95/95/95

f 99/99/99 97/97/97 19/19/19

f 100/100/100 99/99/99 19/19/19

f 99/99/99 98/98/98 97/97/97

f 101/101/101 102/102/102 99/99/99

f 102/102/102 98/98/98 99/99/99

f 103/103/103 96/96/96 98/98/98

f 102/102/102 103/103/103 98/98/98

f 104/104/104 105/105/105 102/102/102

f 105/105/105 103/103/103 102/102/102

f 103/103/103 106/106/106 96/96/96

f 106/106/106 94/94/94 96/96/96

f 105/105/105 107/107/107 103/103/103

f 107/107/107 106/106/106 103/103/103

f 108/108/108 109/109/109 105/105/105

f 109/109/109 107/107/107 105/105/105

f 106/106/106 110/110/110 94/94/94

f 110/110/110 92/92/92 94/94/94

f 107/107/107 111/111/111 106/106/106

f 111/111/111 110/110/110 106/106/106

f 109/109/109 112/112/112 107/107/107

f 112/112/112 111/111/111 107/107/107

f 113/113/113 114/114/114 109/109/109

f 114/114/114 112/112/112 109/109/109

f 110/110/110 115/115/115 92/92/92

f 115/115/115 90/90/90 92/92/92

f 111/111/111 116/116/116 110/110/110

f 116/116/116 115/115/115 110/110/110

f 112/112/112 117/117/117 111/111/111

f 117/117/117 116/116/116 111/111/111

f 115/115/115 118/118/118 90/90/90

f 118/118/118 88/88/88 90/90/90

f 116/116/116 119/119/119 115/115/115

f 119/119/119 118/118/118 115/115/115

f 118/118/118 120/120/120 88/88/88

f 120/120/120 86/86/86 88/88/88

f 119/119/119 121/121/121 118/118/118

f 121/121/121 120/120/120 118/118/118

f 122/122/122 119/119/119 116/116/116

f 117/117/117 122/122/122 116/116/116

f 123/123/123 121/121/121 119/119/119

f 122/122/122 123/123/123 119/119/119

f 120/120/120 124/124/124 86/86/86

f 124/124/124 84/84/84 86/86/86

f 121/121/121 125/125/125 120/120/120

f 125/125/125 124/124/124 120/120/120

f 124/124/124 126/126/126 84/84/84

f 126/126/126 82/82/82 84/84/84

f 125/125/125 127/127/127 124/124/124

f 127/127/127 126/126/126 124/124/124

f 128/128/128 125/125/125 121/121/121

f 123/123/123 128/128/128 121/121/121

f 129/129/129 127/127/127 125/125/125

f 128/128/128 129/129/129 125/125/125

f 126/126/126 130/130/130 82/82/82

f 130/130/130 80/80/80 82/82/82

f 127/127/127 131/131/131 126/126/126

f 131/131/131 130/130/130 126/126/126

f 130/130/130 132/132/132 80/80/80

f 132/132/132 78/78/78 80/80/80

f 131/131/131 133/133/133 130/130/130

f 133/133/133 132/132/132 130/130/130

f 134/134/134 131/131/131 127/127/127

f 129/129/129 134/134/134 127/127/127

f 135/135/135 133/133/133 131/131/131

f 134/134/134 135/135/135 131/131/131

f 132/132/132 136/136/136 78/78/78

f 136/136/136 76/76/76 78/78/78

f 133/133/133 137/137/137 132/132/132

f 137/137/137 136/136/136 132/132/132

f 136/136/136 138/138/138 76/76/76

f 138/138/138 75/75/75 76/76/76

f 137/137/137 139/139/139 136/136/136

f 139/139/139 138/138/138 136/136/136

f 140/140/140 137/137/137 133/133/133

f 135/135/135 140/140/140 133/133/133

f 141/141/141 139/139/139 137/137/137

f 140/140/140 141/141/141 137/137/137

f 138/138/138 142/142/142 75/75/75

f 142/142/142 74/74/74 75/75/75

f 139/139/139 143/143/143 138/138/138

f 143/143/143 142/142/142 138/138/138

f 144/144/144 74/74/74 145/145/145

f 142/142/142 145/145/145 74/74/74

f 146/146/146 143/143/143 139/139/139

f 141/141/141 146/146/146 139/139/139

f 143/143/143 147/147/147 142/142/142

f 147/147/147 145/145/145 142/142/142

f 146/146/146 148/148/148 143/143/143

f 148/148/148 147/147/147 143/143/143

f 149/149/149 145/145/145 150/150/150

f 147/147/147 150/150/150 145/145/145

f 148/148/148 151/151/151 147/147/147

f 151/151/151 150/150/150 147/147/147

f 152/152/152 150/150/150 153/153/153

f 151/151/151 153/153/153 150/150/150

f 154/154/154 153/153/153 155/155/155

f 156/156/156 153/153/153 151/151/151

f 156/156/156 155/155/155 153/153/153

f 157/157/157 151/151/151 148/148/148

f 157/157/157 156/156/156 151/151/151

f 158/158/158 155/155/155 159/159/159

f 160/160/160 155/155/155 156/156/156

f 160/160/160 159/159/159 155/155/155

f 161/161/161 156/156/156 157/157/157

f 161/161/161 160/160/160 156/156/156

f 162/162/162 157/157/157 148/148/148

f 162/162/162 148/148/148 146/146/146

f 163/163/163 161/161/161 157/157/157

f 163/163/163 157/157/157 162/162/162

f 164/164/164 162/162/162 146/146/146

f 164/164/164 146/146/146 141/141/141

f 165/165/165 163/163/163 162/162/162

f 165/165/165 162/162/162 164/164/164

f 166/166/166 164/164/164 141/141/141

f 166/166/166 141/141/141 140/140/140

f 167/167/167 165/165/165 164/164/164

f 167/167/167 164/164/164 166/166/166

f 168/168/168 166/166/166 140/140/140

f 168/168/168 140/140/140 135/135/135

f 169/169/169 167/167/167 166/166/166

f 169/169/169 166/166/166 168/168/168

f 170/170/170 168/168/168 135/135/135

f 170/170/170 135/135/135 134/134/134

f 171/171/171 169/169/169 168/168/168

f 171/171/171 168/168/168 170/170/170

f 172/172/172 170/170/170 134/134/134

f 172/172/172 134/134/134 129/129/129

f 173/173/173 171/171/171 170/170/170

f 173/173/173 170/170/170 172/172/172

f 174/174/174 172/172/172 129/129/129

f 174/174/174 129/129/129 128/128/128

f 175/175/175 173/173/173 172/172/172

f 175/175/175 172/172/172 174/174/174

f 176/176/176 174/174/174 128/128/128

f 176/176/176 128/128/128 123/123/123

f 177/177/177 175/175/175 174/174/174

f 177/177/177 174/174/174 176/176/176

f 178/178/178 176/176/176 123/123/123

f 178/178/178 123/123/123 122/122/122

f 179/179/179 177/177/177 176/176/176

f 179/179/179 176/176/176 178/178/178

f 180/180/180 178/178/178 122/122/122

f 180/180/180 122/122/122 117/117/117

f 181/181/181 179/179/179 178/178/178

f 181/181/181 178/178/178 180/180/180

f 182/182/182 180/180/180 117/117/117

f 182/182/182 117/117/117 112/112/112

f 114/114/114 182/182/182 112/112/112

f 183/183/183 180/180/180 182/182/182

f 183/183/183 181/181/181 180/180/180

f 184/184/184 182/182/182 114/114/114

f 185/185/185 184/184/184 114/114/114

f 184/184/184 183/183/183 182/182/182

f 186/186/186 187/187/187 184/184/184

f 187/187/187 183/183/183 184/184/184

f 188/188/188 181/181/181 183/183/183

f 187/187/187 188/188/188 183/183/183

f 189/189/189 190/190/190 187/187/187

f 190/190/190 188/188/188 187/187/187

f 188/188/188 191/191/191 181/181/181

f 191/191/191 179/179/179 181/181/181

f 190/190/190 192/192/192 188/188/188

f 192/192/192 191/191/191 188/188/188

f 193/193/193 194/194/194 190/190/190

f 194/194/194 192/192/192 190/190/190

f 191/191/191 195/195/195 179/179/179

f 195/195/195 177/177/177 179/179/179

f 192/192/192 196/196/196 191/191/191

f 196/196/196 195/195/195 191/191/191

f 194/194/194 197/197/197 192/192/192

f 197/197/197 196/196/196 192/192/192

f 198/198/198 199/199/199 194/194/194

f 199/199/199 197/197/197 194/194/194

f 195/195/195 200/200/200 177/177/177

f 200/200/200 175/175/175 177/177/177

f 196/196/196 201/201/201 195/195/195

f 201/201/201 200/200/200 195/195/195

f 197/197/197 202/202/202 196/196/196

f 202/202/202 201/201/201 196/196/196

f 200/200/200 203/203/203 175/175/175

f 203/203/203 173/173/173 175/175/175

f 201/201/201 204/204/204 200/200/200

f 204/204/204 203/203/203 200/200/200

f 203/203/203 205/205/205 173/173/173

f 205/205/205 171/171/171 173/173/173

f 204/204/204 206/206/206 203/203/203

f 206/206/206 205/205/205 203/203/203

f 207/207/207 204/204/204 201/201/201

f 202/202/202 207/207/207 201/201/201

f 208/208/208 206/206/206 204/204/204

f 207/207/207 208/208/208 204/204/204

f 205/205/205 209/209/209 171/171/171

f 209/209/209 169/169/169 171/171/171

f 206/206/206 210/210/210 205/205/205

f 210/210/210 209/209/209 205/205/205

f 209/209/209 211/211/211 169/169/169

f 211/211/211 167/167/167 169/169/169

f 210/210/210 212/212/212 209/209/209

f 212/212/212 211/211/211 209/209/209

f 213/213/213 210/210/210 206/206/206

f 208/208/208 213/213/213 206/206/206

f 214/214/214 212/212/212 210/210/210

f 213/213/213 214/214/214 210/210/210

f 211/211/211 215/215/215 167/167/167

f 215/215/215 165/165/165 167/167/167

f 212/212/212 216/216/216 211/211/211

f 216/216/216 215/215/215 211/211/211

f 215/215/215 217/217/217 165/165/165

f 217/217/217 163/163/163 165/165/165

f 216/216/216 218/218/218 215/215/215

f 218/218/218 217/217/217 215/215/215

f 219/219/219 216/216/216 212/212/212

f 214/214/214 219/219/219 212/212/212

f 220/220/220 218/218/218 216/216/216

f 219/219/219 220/220/220 216/216/216

f 217/217/217 221/221/221 163/163/163

f 221/221/221 161/161/161 163/163/163

f 218/218/218 222/222/222 217/217/217

f 222/222/222 221/221/221 217/217/217

f 221/221/221 223/223/223 161/161/161

f 223/223/223 160/160/160 161/161/161

f 222/222/222 224/224/224 221/221/221

f 224/224/224 223/223/223 221/221/221

f 225/225/225 222/222/222 218/218/218

f 220/220/220 225/225/225 218/218/218

f 226/226/226 224/224/224 222/222/222

f 225/225/225 226/226/226 222/222/222

f 223/223/223 227/227/227 160/160/160

f 227/227/227 159/159/159 160/160/160

f 224/224/224 228/228/228 223/223/223

f 228/228/228 227/227/227 223/223/223

f 229/229/229 159/159/159 230/230/230

f 227/227/227 230/230/230 159/159/159

f 231/231/231 228/228/228 224/224/224

f 226/226/226 231/231/231 224/224/224

f 228/228/228 232/232/232 227/227/227

f 232/232/232 230/230/230 227/227/227

f 231/231/231 233/233/233 228/228/228

f 233/233/233 232/232/232 228/228/228

f 234/234/234 230/230/230 235/235/235

f 232/232/232 235/235/235 230/230/230

f 233/233/233 236/236/236 232/232/232

f 236/236/236 235/235/235 232/232/232

f 237/237/237 235/235/235 238/238/238

f 236/236/236 238/238/238 235/235/235

f 239/239/239 238/238/238 240/240/240

f 241/241/241 238/238/238 236/236/236

f 241/241/241 240/240/240 238/238/238

f 242/242/242 236/236/236 233/233/233

f 242/242/242 241/241/241 236/236/236

f 243/243/243 240/240/240 244/244/244

f 245/245/245 240/240/240 241/241/241

f 245/245/245 244/244/244 240/240/240

f 246/246/246 241/241/241 242/242/242

f 246/246/246 245/245/245 241/241/241

f 247/247/247 242/242/242 233/233/233

f 247/247/247 233/233/233 231/231/231

f 248/248/248 246/246/246 242/242/242

f 248/248/248 242/242/242 247/247/247

f 249/249/249 247/247/247 231/231/231

f 249/249/249 231/231/231 226/226/226

f 250/250/250 248/248/248 247/247/247

f 250/250/250 247/247/247 249/249/249

f 251/251/251 249/249/249 226/226/226

f 251/251/251 226/226/226 225/225/225

f 252/252/252 250/250/250 249/249/249

f 252/252/252 249/249/249 251/251/251

f 253/253/253 251/251/251 225/225/225

f 253/253/253 225/225/225 220/220/220

f 254/254/254 252/252/252 251/251/251

f 254/254/254 251/251/251 253/253/253

f 255/255/255 253/253/253 220/220/220

f 255/255/255 220/220/220 219/219/219

f 256/256/256 254/254/254 253/253/253

f 256/256/256 253/253/253 255/255/255

f 257/257/257 255/255/255 219/219/219

f 257/257/257 219/219/219 214/214/214

f 258/258/258 256/256/256 255/255/255

f 258/258/258 255/255/255 257/257/257

f 259/259/259 257/257/257 214/214/214

f 259/259/259 214/214/214 213/213/213

f 260/260/260 258/258/258 257/257/257

f 260/260/260 257/257/257 259/259/259

f 261/261/261 259/259/259 213/213/213

f 261/261/261 213/213/213 208/208/208

f 262/262/262 260/260/260 259/259/259

f 262/262/262 259/259/259 261/261/261

f 263/263/263 261/261/261 208/208/208

f 263/263/263 208/208/208 207/207/207

f 264/264/264 262/262/262 261/261/261

f 264/264/264 261/261/261 263/263/263

f 265/265/265 263/263/263 207/207/207

f 265/265/265 207/207/207 202/202/202

f 266/266/266 264/264/264 263/263/263

f 266/266/266 263/263/263 265/265/265

f 267/267/267 265/265/265 202/202/202

f 267/267/267 202/202/202 197/197/197

f 199/199/199 267/267/267 197/197/197

f 268/268/268 265/265/265 267/267/267

f 268/268/268 266/266/266 265/265/265

f 269/269/269 267/267/267 199/199/199

f 270/270/270 269/269/269 199/199/199

f 269/269/269 268/268/268 267/267/267

f 271/271/271 272/272/272 269/269/269

f 272/272/272 268/268/268 269/269/269

f 273/273/273 266/266/266 268/268/268

f 272/272/272 273/273/273 268/268/268

f 274/274/274 275/275/275 272/272/272

f 275/275/275 273/273/273 272/272/272

f 273/273/273 276/276/276 266/266/266

f 276/276/276 264/264/264 266/266/266

f 275/275/275 277/277/277 273/273/273

f 277/277/277 276/276/276 273/273/273

f 278/278/278 279/279/279 275/275/275

f 279/279/279 277/277/277 275/275/275

f 276/276/276 280/280/280 264/264/264

f 280/280/280 262/262/262 264/264/264

f 277/277/277 281/281/281 276/276/276

f 281/281/281 280/280/280 276/276/276

f 279/279/279 282/282/282 277/277/277

f 282/282/282 281/281/281 277/277/277

f 283/283/283 284/284/284 279/279/279

f 284/284/284 282/282/282 279/279/279

f 280/280/280 285/285/285 262/262/262

f 285/285/285 260/260/260 262/262/262

f 281/281/281 286/286/286 280/280/280

f 286/286/286 285/285/285 280/280/280

f 282/282/282 287/287/287 281/281/281

f 287/287/287 286/286/286 281/281/281

f 285/285/285 288/288/288 260/260/260

f 288/288/288 258/258/258 260/260/260

f 286/286/286 289/289/289 285/285/285

f 289/289/289 288/288/288 285/285/285

f 288/288/288 290/290/290 258/258/258

f 290/290/290 256/256/256 258/258/258

f 289/289/289 291/291/291 288/288/288

f 291/291/291 290/290/290 288/288/288

f 292/292/292 289/289/289 286/286/286

f 287/287/287 292/292/292 286/286/286

f 293/293/293 291/291/291 289/289/289

f 292/292/292 293/293/293 289/289/289

f 290/290/290 294/294/294 256/256/256

f 294/294/294 254/254/254 256/256/256

f 291/291/291 295/295/295 290/290/290

f 295/295/295 294/294/294 290/290/290

f 294/294/294 296/296/296 254/254/254

f 296/296/296 252/252/252 254/254/254

f 295/295/295 297/297/297 294/294/294

f 297/297/297 296/296/296 294/294/294

f 298/298/298 295/295/295 291/291/291

f 293/293/293 298/298/298 291/291/291

f 299/299/299 297/297/297 295/295/295

f 298/298/298 299/299/299 295/295/295

f 296/296/296 300/300/300 252/252/252

f 300/300/300 250/250/250 252/252/252

f 297/297/297 301/301/301 296/296/296

f 301/301/301 300/300/300 296/296/296

f 300/300/300 302/302/302 250/250/250

f 302/302/302 248/248/248 250/250/250

f 301/301/301 303/303/303 300/300/300

f 303/303/303 302/302/302 300/300/300

f 304/304/304 301/301/301 297/297/297

f 299/299/299 304/304/304 297/297/297

f 305/305/305 303/303/303 301/301/301

f 304/304/304 305/305/305 301/301/301

f 302/302/302 306/306/306 248/248/248

f 306/306/306 246/246/246 248/248/248

f 303/303/303 307/307/307 302/302/302

f 307/307/307 306/306/306 302/302/302

f 306/306/306 308/308/308 246/246/246

f 308/308/308 245/245/245 246/246/246

f 307/307/307 309/309/309 306/306/306

f 309/309/309 308/308/308 306/306/306

f 310/310/310 307/307/307 303/303/303

f 305/305/305 310/310/310 303/303/303

f 311/311/311 309/309/309 307/307/307

f 310/310/310 311/311/311 307/307/307

f 308/308/308 312/312/312 245/245/245

f 312/312/312 244/244/244 245/245/245

f 309/309/309 313/313/313 308/308/308

f 313/313/313 312/312/312 308/308/308

f 314/314/314 244/244/244 315/315/315

f 312/312/312 315/315/315 244/244/244

f 316/316/316 313/313/313 309/309/309

f 311/311/311 316/316/316 309/309/309

f 313/313/313 317/317/317 312/312/312

f 317/317/317 315/315/315 312/312/312

f 316/316/316 318/318/318 313/313/313

f 318/318/318 317/317/317 313/313/313

f 319/319/319 315/315/315 320/320/320

f 317/317/317 320/320/320 315/315/315

f 318/318/318 321/321/321 317/317/317

f 321/321/321 320/320/320 317/317/317

f 322/322/322 320/320/320 323/323/323

f 321/321/321 323/323/323 320/320/320

f 324/324/324 323/323/323 325/325/325

f 326/326/326 323/323/323 321/321/321

f 326/326/326 325/325/325 323/323/323

f 327/327/327 321/321/321 318/318/318

f 327/327/327 326/326/326 321/321/321

f 328/328/328 325/325/325 329/329/329

f 330/330/330 325/325/325 326/326/326

f 330/330/330 329/329/329 325/325/325

f 331/331/331 326/326/326 327/327/327

f 331/331/331 330/330/330 326/326/326

f 332/332/332 327/327/327 318/318/318

f 332/332/332 318/318/318 316/316/316

f 333/333/333 331/331/331 327/327/327

f 333/333/333 327/327/327 332/332/332

f 334/334/334 332/332/332 316/316/316

f 334/334/334 316/316/316 311/311/311

f 335/335/335 333/333/333 332/332/332

f 335/335/335 332/332/332 334/334/334

f 336/336/336 334/334/334 311/311/311

f 336/336/336 311/311/311 310/310/310

f 337/337/337 335/335/335 334/334/334

f 337/337/337 334/334/334 336/336/336

f 338/338/338 336/336/336 310/310/310

f 338/338/338 310/310/310 305/305/305

f 339/339/339 337/337/337 336/336/336

f 339/339/339 336/336/336 338/338/338

f 340/340/340 338/338/338 305/305/305

f 340/340/340 305/305/305 304/304/304

f 341/341/341 339/339/339 338/338/338

f 341/341/341 338/338/338 340/340/340

f 342/342/342 340/340/340 304/304/304

f 342/342/342 304/304/304 299/299/299

f 343/343/343 341/341/341 340/340/340

f 343/343/343 340/340/340 342/342/342

f 344/344/344 342/342/342 299/299/299

f 344/344/344 299/299/299 298/298/298

f 345/345/345 343/343/343 342/342/342

f 345/345/345 342/342/342 344/344/344

f 346/346/346 344/344/344 298/298/298

f 346/346/346 298/298/298 293/293/293

f 347/347/347 345/345/345 344/344/344

f 347/347/347 344/344/344 346/346/346

f 348/348/348 346/346/346 293/293/293

f 348/348/348 293/293/293 292/292/292

f 349/349/349 347/347/347 346/346/346

f 349/349/349 346/346/346 348/348/348

f 350/350/350 348/348/348 292/292/292

f 350/350/350 292/292/292 287/287/287

f 351/351/351 349/349/349 348/348/348

f 351/351/351 348/348/348 350/350/350

f 352/352/352 350/350/350 287/287/287

f 352/352/352 287/287/287 282/282/282

f 284/284/284 352/352/352 282/282/282

f 353/353/353 350/350/350 352/352/352

f 353/353/353 351/351/351 350/350/350

f 354/354/354 352/352/352 284/284/284

f 355/355/355 354/354/354 284/284/284

f 354/354/354 353/353/353 352/352/352

f 356/356/356 357/357/357 354/354/354

f 357/357/357 353/353/353 354/354/354

f 358/358/358 351/351/351 353/353/353

f 357/357/357 358/358/358 353/353/353

f 359/359/359 360/360/360 357/357/357

f 360/360/360 358/358/358 357/357/357

f 358/358/358 361/361/361 351/351/351

f 361/361/361 349/349/349 351/351/351

f 360/360/360 362/362/362 358/358/358

f 362/362/362 361/361/361 358/358/358

f 363/363/363 364/364/364 360/360/360

f 364/364/364 362/362/362 360/360/360

f 361/361/361 365/365/365 349/349/349

f 365/365/365 347/347/347 349/349/349

f 362/362/362 366/366/366 361/361/361

f 366/366/366 365/365/365 361/361/361

f 364/364/364 367/367/367 362/362/362

f 367/367/367 366/366/366 362/362/362

f 368/368/368 369/369/369 364/364/364

f 369/369/369 367/367/367 364/364/364

f 365/365/365 370/370/370 347/347/347

f 370/370/370 345/345/345 347/347/347

f 366/366/366 371/371/371 365/365/365

f 371/371/371 370/370/370 365/365/365

f 367/367/367 372/372/372 366/366/366

f 372/372/372 371/371/371 366/366/366

f 370/370/370 373/373/373 345/345/345

f 373/373/373 343/343/343 345/345/345

f 371/371/371 374/374/374 370/370/370

f 374/374/374 373/373/373 370/370/370

f 373/373/373 375/375/375 343/343/343

f 375/375/375 341/341/341 343/343/343

f 374/374/374 376/376/376 373/373/373

f 376/376/376 375/375/375 373/373/373

f 377/377/377 374/374/374 371/371/371

f 372/372/372 377/377/377 371/371/371

f 378/378/378 376/376/376 374/374/374

f 377/377/377 378/378/378 374/374/374

f 375/375/375 379/379/379 341/341/341

f 379/379/379 339/339/339 341/341/341

f 376/376/376 380/380/380 375/375/375

f 380/380/380 379/379/379 375/375/375

f 379/379/379 381/381/381 339/339/339

f 381/381/381 337/337/337 339/339/339

f 380/380/380 382/382/382 379/379/379

f 382/382/382 381/381/381 379/379/379

f 383/383/383 380/380/380 376/376/376

f 378/378/378 383/383/383 376/376/376

f 384/384/384 382/382/382 380/380/380

f 383/383/383 384/384/384 380/380/380

f 381/381/381 385/385/385 337/337/337

f 385/385/385 335/335/335 337/337/337

f 382/382/382 386/386/386 381/381/381

f 386/386/386 385/385/385 381/381/381

f 385/385/385 387/387/387 335/335/335

f 387/387/387 333/333/333 335/335/335

f 386/386/386 388/388/388 385/385/385

f 388/388/388 387/387/387 385/385/385

f 389/389/389 386/386/386 382/382/382

f 384/384/384 389/389/389 382/382/382

f 390/390/390 388/388/388 386/386/386

f 389/389/389 390/390/390 386/386/386

f 387/387/387 391/391/391 333/333/333

f 391/391/391 331/331/331 333/333/333

f 388/388/388 392/392/392 387/387/387

f 392/392/392 391/391/391 387/387/387

f 391/391/391 393/393/393 331/331/331

f 393/393/393 330/330/330 331/331/331

f 392/392/392 394/394/394 391/391/391

f 394/394/394 393/393/393 391/391/391

f 395/395/395 392/392/392 388/388/388

f 390/390/390 395/395/395 388/388/388

f 396/396/396 394/394/394 392/392/392

f 395/395/395 396/396/396 392/392/392

f 393/393/393 397/397/397 330/330/330

f 397/397/397 329/329/329 330/330/330

f 394/394/394 398/398/398 393/393/393

f 398/398/398 397/397/397 393/393/393

f 399/399/399 329/329/329 400/400/400

f 397/397/397 400/400/400 329/329/329

f 401/401/401 398/398/398 394/394/394

f 396/396/396 401/401/401 394/394/394

f 398/398/398 402/402/402 397/397/397

f 402/402/402 400/400/400 397/397/397

f 401/401/401 403/403/403 398/398/398

f 403/403/403 402/402/402 398/398/398

f 404/404/404 400/400/400 405/405/405

f 402/402/402 405/405/405 400/400/400

f 403/403/403 406/406/406 402/402/402

f 406/406/406 405/405/405 402/402/402

f 407/407/407 405/405/405 408/408/408

f 406/406/406 408/408/408 405/405/405

f 409/409/409 408/408/408 410/410/410

f 411/411/411 408/408/408 406/406/406

f 411/411/411 410/410/410 408/408/408

f 412/412/412 406/406/406 403/403/403

f 412/412/412 411/411/411 406/406/406

f 413/413/413 410/410/410 414/414/414

f 415/415/415 410/410/410 411/411/411

f 415/415/415 414/414/414 410/410/410

f 416/416/416 411/411/411 412/412/412

f 416/416/416 415/415/415 411/411/411

f 417/417/417 412/412/412 403/403/403

f 417/417/417 403/403/403 401/401/401

f 418/418/418 416/416/416 412/412/412

f 418/418/418 412/412/412 417/417/417

f 419/419/419 417/417/417 401/401/401

f 419/419/419 401/401/401 396/396/396

f 420/420/420 418/418/418 417/417/417

f 420/420/420 417/417/417 419/419/419

f 421/421/421 419/419/419 396/396/396

f 421/421/421 396/396/396 395/395/395

f 422/422/422 420/420/420 419/419/419

f 422/422/422 419/419/419 421/421/421

f 423/423/423 421/421/421 395/395/395

f 423/423/423 395/395/395 390/390/390

f 424/424/424 422/422/422 421/421/421

f 424/424/424 421/421/421 423/423/423

f 425/425/425 423/423/423 390/390/390

f 425/425/425 390/390/390 389/389/389

f 426/426/426 424/424/424 423/423/423

f 426/426/426 423/423/423 425/425/425

f 427/427/427 425/425/425 389/389/389

f 427/427/427 389/389/389 384/384/384

f 428/428/428 426/426/426 425/425/425

f 428/428/428 425/425/425 427/427/427

f 429/429/429 427/427/427 384/384/384

f 429/429/429 384/384/384 383/383/383

f 430/430/430 428/428/428 427/427/427

f 430/430/430 427/427/427 429/429/429

f 431/431/431 429/429/429 383/383/383

f 431/431/431 383/383/383 378/378/378

f 432/432/432 430/430/430 429/429/429

f 432/432/432 429/429/429 431/431/431

f 433/433/433 431/431/431 378/378/378

f 433/433/433 378/378/378 377/377/377

f 434/434/434 432/432/432 431/431/431

f 434/434/434 431/431/431 433/433/433

f 435/435/435 433/433/433 377/377/377

f 435/435/435 377/377/377 372/372/372

f 436/436/436 434/434/434 433/433/433

f 436/436/436 433/433/433 435/435/435

f 437/437/437 435/435/435 372/372/372

f 437/437/437 372/372/372 367/367/367

f 369/369/369 437/437/437 367/367/367

f 438/438/438 435/435/435 437/437/437

f 438/438/438 436/436/436 435/435/435

f 439/439/439 437/437/437 369/369/369

f 440/440/440 439/439/439 369/369/369

f 439/439/439 438/438/438 437/437/437

f 441/441/441 442/442/442 439/439/439

f 442/442/442 438/438/438 439/439/439

f 443/443/443 436/436/436 438/438/438

f 442/442/442 443/443/443 438/438/438

f 444/444/444 445/445/445 442/442/442

f 445/445/445 443/443/443 442/442/442

f 443/443/443 446/446/446 436/436/436

f 446/446/446 434/434/434 436/436/436

f 445/445/445 447/447/447 443/443/443

f 447/447/447 446/446/446 443/443/443

f 448/448/448 449/449/449 445/445/445

f 449/449/449 447/447/447 445/445/445

f 446/446/446 450/450/450 434/434/434

f 450/450/450 432/432/432 434/434/434

f 447/447/447 451/451/451 446/446/446

f 451/451/451 450/450/450 446/446/446

f 449/449/449 452/452/452 447/447/447

f 452/452/452 451/451/451 447/447/447

f 453/453/453 454/454/454 449/449/449

f 454/454/454 452/452/452 449/449/449

f 450/450/450 455/455/455 432/432/432

f 455/455/455 430/430/430 432/432/432

f 451/451/451 456/456/456 450/450/450

f 456/456/456 455/455/455 450/450/450

f 452/452/452 457/457/457 451/451/451

f 457/457/457 456/456/456 451/451/451

f 455/455/455 458/458/458 430/430/430

f 458/458/458 428/428/428 430/430/430

f 456/456/456 459/459/459 455/455/455

f 459/459/459 458/458/458 455/455/455

f 458/458/458 460/460/460 428/428/428

f 460/460/460 426/426/426 428/428/428

f 459/459/459 461/461/461 458/458/458

f 461/461/461 460/460/460 458/458/458

f 462/462/462 459/459/459 456/456/456

f 457/457/457 462/462/462 456/456/456

f 463/463/463 461/461/461 459/459/459

f 462/462/462 463/463/463 459/459/459

f 460/460/460 464/464/464 426/426/426

f 464/464/464 424/424/424 426/426/426

f 461/461/461 465/465/465 460/460/460

f 465/465/465 464/464/464 460/460/460

f 464/464/464 466/466/466 424/424/424

f 466/466/466 422/422/422 424/424/424

f 465/465/465 467/467/467 464/464/464

f 467/467/467 466/466/466 464/464/464

f 468/468/468 465/465/465 461/461/461

f 463/463/463 468/468/468 461/461/461

f 469/469/469 467/467/467 465/465/465

f 468/468/468 469/469/469 465/465/465

f 466/466/466 470/470/470 422/422/422

f 470/470/470 420/420/420 422/422/422

f 467/467/467 471/471/471 466/466/466

f 471/471/471 470/470/470 466/466/466

f 470/470/470 472/472/472 420/420/420

f 472/472/472 418/418/418 420/420/420

f 471/471/471 473/473/473 470/470/470

f 473/473/473 472/472/472 470/470/470

f 474/474/474 471/471/471 467/467/467

f 469/469/469 474/474/474 467/467/467

f 475/475/475 473/473/473 471/471/471

f 474/474/474 475/475/475 471/471/471

f 472/472/472 476/476/476 418/418/418

f 476/476/476 416/416/416 418/418/418

f 473/473/473 477/477/477 472/472/472

f 477/477/477 476/476/476 472/472/472

f 476/476/476 478/478/478 416/416/416

f 478/478/478 415/415/415 416/416/416

f 477/477/477 479/479/479 476/476/476

f 479/479/479 478/478/478 476/476/476

f 480/480/480 477/477/477 473/473/473

f 475/475/475 480/480/480 473/473/473

f 481/481/481 479/479/479 477/477/477

f 480/480/480 481/481/481 477/477/477

f 478/478/478 482/482/482 415/415/415

f 482/482/482 414/414/414 415/415/415

f 479/479/479 483/483/483 478/478/478

f 483/483/483 482/482/482 478/478/478

f 484/484/484 414/414/414 485/485/485

f 482/482/482 485/485/485 414/414/414

f 486/486/486 483/483/483 479/479/479

f 481/481/481 486/486/486 479/479/479

f 483/483/483 487/487/487 482/482/482

f 487/487/487 485/485/485 482/482/482

f 486/486/486 488/488/488 483/483/483

f 488/488/488 487/487/487 483/483/483

f 489/489/489 485/485/485 490/490/490

f 487/487/487 490/490/490 485/485/485

f 488/488/488 491/491/491 487/487/487

f 491/491/491 490/490/490 487/487/487

f 492/492/492 490/490/490 493/493/493

f 491/491/491 493/493/493 490/490/490

f 494/494/494 493/493/493 495/495/495

f 496/496/496 493/493/493 491/491/491

f 496/496/496 495/495/495 493/493/493

f 497/497/497 491/491/491 488/488/488

f 497/497/497 496/496/496 491/491/491

f 498/498/498 495/495/495 499/499/499

f 500/500/500 495/495/495 496/496/496

f 500/500/500 499/499/499 495/495/495

f 501/501/501 496/496/496 497/497/497

f 501/501/501 500/500/500 496/496/496

f 502/502/502 497/497/497 488/488/488

f 502/502/502 488/488/488 486/486/486

f 503/503/503 501/501/501 497/497/497

f 503/503/503 497/497/497 502/502/502

f 504/504/504 502/502/502 486/486/486

f 504/504/504 486/486/486 481/481/481

f 505/505/505 503/503/503 502/502/502

f 505/505/505 502/502/502 504/504/504

f 506/506/506 504/504/504 481/481/481

f 506/506/506 481/481/481 480/480/480

f 507/507/507 505/505/505 504/504/504

f 507/507/507 504/504/504 506/506/506

f 508/508/508 506/506/506 480/480/480

f 508/508/508 480/480/480 475/475/475

f 509/509/509 507/507/507 506/506/506

f 509/509/509 506/506/506 508/508/508

f 510/510/510 508/508/508 475/475/475

f 510/510/510 475/475/475 474/474/474

f 511/511/511 509/509/509 508/508/508

f 511/511/511 508/508/508 510/510/510

f 512/512/512 510/510/510 474/474/474

f 512/512/512 474/474/474 469/469/469

f 513/513/513 511/511/511 510/510/510

f 513/513/513 510/510/510 512/512/512

f 514/514/514 512/512/512 469/469/469

f 514/514/514 469/469/469 468/468/468

f 515/515/515 513/513/513 512/512/512

f 515/515/515 512/512/512 514/514/514

f 516/516/516 514/514/514 468/468/468

f 516/516/516 468/468/468 463/463/463

f 517/517/517 515/515/515 514/514/514

f 517/517/517 514/514/514 516/516/516

f 518/518/518 516/516/516 463/463/463

f 518/518/518 463/463/463 462/462/462

f 519/519/519 517/517/517 516/516/516

f 519/519/519 516/516/516 518/518/518

f 520/520/520 518/518/518 462/462/462

f 520/520/520 462/462/462 457/457/457

f 521/521/521 519/519/519 518/518/518

f 521/521/521 518/518/518 520/520/520

f 522/522/522 520/520/520 457/457/457

f 522/522/522 457/457/457 452/452/452

f 454/454/454 522/522/522 452/452/452

f 523/523/523 520/520/520 522/522/522

f 523/523/523 521/521/521 520/520/520

f 524/524/524 522/522/522 454/454/454

f 525/525/525 524/524/524 454/454/454

f 524/524/524 523/523/523 522/522/522

f 526/526/526 527/527/527 524/524/524

f 527/527/527 523/523/523 524/524/524

f 528/528/528 529/529/529 527/527/527

f 527/527/527 530/530/530 523/523/523

f 529/529/529 530/530/530 527/527/527

f 530/530/530 521/521/521 523/523/523

f 529/529/529 531/531/531 530/530/530

f 530/530/530 532/532/532 521/521/521

f 531/531/531 532/532/532 530/530/530

f 532/532/532 519/519/519 521/521/521

f 531/531/531 533/533/533 532/532/532

f 532/532/532 534/534/534 519/519/519

f 533/533/533 534/534/534 532/532/532

f 534/534/534 517/517/517 519/519/519

f 533/533/533 535/535/535 534/534/534

f 534/534/534 536/536/536 517/517/517

f 535/535/535 536/536/536 534/534/534

f 536/536/536 515/515/515 517/517/517

f 535/535/535 537/537/537 536/536/536

f 536/536/536 538/538/538 515/515/515

f 537/537/537 538/538/538 536/536/536

f 538/538/538 513/513/513 515/515/515

f 537/537/537 539/539/539 538/538/538

f 538/538/538 540/540/540 513/513/513

f 539/539/539 540/540/540 538/538/538

f 540/540/540 511/511/511 513/513/513

f 539/539/539 541/541/541 540/540/540

f 540/540/540 542/542/542 511/511/511

f 541/541/541 542/542/542 540/540/540

f 542/542/542 509/509/509 511/511/511

f 541/541/541 543/543/543 542/542/542

f 542/542/542 544/544/544 509/509/509

f 543/543/543 544/544/544 542/542/542

f 544/544/544 507/507/507 509/509/509

f 543/543/543 545/545/545 544/544/544

f 544/544/544 546/546/546 507/507/507

f 545/545/545 546/546/546 544/544/544

f 546/546/546 505/505/505 507/507/507

f 545/545/545 547/547/547 546/546/546

f 546/546/546 548/548/548 505/505/505

f 547/547/547 548/548/548 546/546/546

f 548/548/548 503/503/503 505/505/505

f 547/547/547 549/549/549 548/548/548

f 548/548/548 550/550/550 503/503/503

f 549/549/549 550/550/550 548/548/548

f 550/550/550 501/501/501 503/503/503

f 549/549/549 551/551/551 550/550/550

f 550/550/550 552/552/552 501/501/501

f 551/551/551 552/552/552 550/550/550

f 552/552/552 500/500/500 501/501/501

f 551/551/551 553/553/553 552/552/552

f 552/552/552 554/554/554 500/500/500

f 553/553/553 554/554/554 552/552/552

f 554/554/554 499/499/499 500/500/500

f 553/553/553 555/555/555 554/554/554

f 554/554/554 556/556/556 499/499/499

f 555/555/555 556/556/556 554/554/554

f 557/557/557 499/499/499 556/556/556

f 555/555/555 558/558/558 556/556/556

f 559/559/559 556/556/556 558/558/558

